\relax 
\catcode`:\active
\catcode`;\active
\catcode`!\active
\catcode`?\active
\select@language{french}
\@writefile{toc}{\select@language{french}}
\@writefile{lof}{\select@language{french}}
\@writefile{lot}{\select@language{french}}
\newlabel{tab1}{{}{1}}
\@writefile{lof}{\contentsline {figure}{\numberline {1}{\ignorespaces Conditions initiales}}{2}}
\newlabel{fig1}{{1}{2}}
\@writefile{lof}{\contentsline {figure}{\numberline {2}{\ignorespaces G\IeC {\'e}om\IeC {\'e}trie des confluents}}{3}}
\newlabel{fig2}{{2}{3}}
\@writefile{lof}{\contentsline {figure}{\numberline {3}{\ignorespaces Cotes maximales au cours de la simulation}}{4}}
\newlabel{fig3}{{3}{4}}
\@writefile{lof}{\contentsline {figure}{\numberline {4}{\ignorespaces Evolution des cotes}}{4}}
\newlabel{fig4}{{4}{4}}
\@writefile{lof}{\contentsline {figure}{\numberline {5}{\ignorespaces Debits maximaux dans le bief principal avec deux versions du logiciel}}{5}}
\newlabel{fig5}{{5}{5}}
\@writefile{lof}{\contentsline {figure}{\numberline {6}{\ignorespaces Evolution temporelle du d\IeC {\'e}bit}}{5}}
\newlabel{fig6}{{6}{5}}
\@writefile{lof}{\contentsline {figure}{\numberline {7}{\ignorespaces Evolution des d\IeC {\'e}bits au niveau du premier affluent}}{6}}
\newlabel{fig7}{{7}{6}}
