 SLAVE  PROCESSOR NUMBER            2  IN THE GROUP OF            8
 EXECUTABLE FILE: /home/orseausy/opentelemac/trunk/examples/telemac2d/mersey/t2d_mersey.cas_2018-10-23-15h23min04s/A.EXE
 BARRIER PASSED
 LISTING OF TELEMAC2D------------------------------------------------------------------------------

                TTTTT  EEEEE  L      EEEEE  M   M  AAAAA  CCCCC
                  T    E      L      E      MM MM  A   A  C    
                  T    EEE    L      EEE    M M M  AAAAA  C    
                  T    E      L      E      M   M  A   A  C    
                  T    EEEEE  LLLLL  EEEEE  M   M  A   A  CCCCC
                                                               
                        2D    VERSION TRUNK  FORTRAN 2003       







                        ~^~^~^~^~^~^~^~^~^~^~^^~^~^~^~^~^~     
                          ~                            ~       
                               \   '    o      '               
                               /\ o       \  o                 
                             >=)'>    '   /\ '                 
                               \/   \   >=)'>        ~         
                               /    /\    \/                   
                        ~         >=)'>   /     .              
                                    \/                   )     
                                    /                   (      
                                          ~          )   )     
                          }     ~              (    (   (      
                         {                      )    )   )     
                          }  }         .       (    (   (      
                         {  {               /^^^^^^^^^^^^      
                        ^^^^^^^^^\         /                   
                                  ^^^^^^^^^                    






  

                   ********************************************
                   *               LECDON:                    *
                   *        AFTER CALLING DAMOCLES            *
                   *        CHECKING OF DATA  READ            *
                   *         IN THE STEERING FILE             *
                   ********************************************


 EXITING LECDON. NAME OF THE STUDY:
 MERSEY ESTUARY                                                          

 OPENING FILES FOR TELEMAC2D               
  - FILE    /home/orseausy/opentelemac/trunk/examples/telemac2d/mersey/t2d_mersey.cas_2018-10-23-15h23min04s/T2DGEO00007-00002 OF TYPE BIG_ENDIAN   
  - FILE    /home/orseausy/opentelemac/trunk/examples/telemac2d/mersey/t2d_mersey.cas_2018-10-23-15h23min04s/T2DGEO00007-00002 IS SINGLE PRECISION 



                          *****************************
                          *    MEMORY ORGANIZATION    *
                          *****************************



 READ_MESH_INFO: TITLE= newmers                                                                 
            NUMBER OF ELEMENTS:      577
            NUMBER OF POINTS:      325

            FORMAT NOT INDICATED IN TITLE
  
 MXPTEL (BIEF) : MAXIMUM NUMBER OF ELEMENTS AROUND A POINT:   8
                 MAXIMUM NUMBER OF POINTS AROUND A POINT:   9
 (GLOBAL MESH)
 SEGBOR (BIEF) : NUMBER OF BOUNDARY SEGMENTS =     71
 INCLUDING THOSE DUE TO DOMAIN DECOMPOSITION
 CORRXY (BIEF):NO MODIFICATION OF COORDINATES

 MESH: MESH   ALLOCATED



                     *************************************
                     *    END OF MEMORY ORGANIZATION:    *
                     *************************************

 INITIALIZING TELEMAC2D FOR        
 INBIEF (BIEF): NOT A VECTOR MACHINE (ACCORDING TO YOUR DATA)
 STRCHE (BIEF): NO MODIFICATION OF FRICTION

  
 NUMBER OF LIQUID BOUNDARIES:           1

 CORFON (TELEMAC2D):            1  BOTTOM SMOOTHINGS


================================================================================
 ITERATION        0    TIME:   0.0000 S
 TELEMAC2D INITIALIZED
 USING STREAMLINE VERSION 7.3 FOR CHARACTERISTICS

================================================================================
 ITERATION       20    TIME: 16 MN  40.0000 S   (     1000.0000 S)
--------------------------------------------------------------------------------
                          ADVECTION STEP          
--------------------------------------------------------------------------------
                    DIFFUSION-PROPAGATION STEP    
 EQUNOR (BIEF) :       17 ITERATIONS, RELATIVE PRECISION:   0.8641234E-03
--------------------------------------------------------------------------------
                       BALANCE OF WATER VOLUME    
     VOLUME IN THE DOMAIN :   0.2147318E+10 M3
     FLUX BOUNDARY    1:    -548422.1     M3/S  ( >0 : ENTERING  <0 : EXITING )
     RELATIVE ERROR IN VOLUME AT T =        1000.     S :    0.1198224E-02

================================================================================
 ITERATION       40    TIME: 33 MN  20.0000 S   (     2000.0000 S)
--------------------------------------------------------------------------------
                          ADVECTION STEP          
--------------------------------------------------------------------------------
                    DIFFUSION-PROPAGATION STEP    
 EQUNOR (BIEF) :       10 ITERATIONS, RELATIVE PRECISION:   0.9888444E-03
--------------------------------------------------------------------------------
                       BALANCE OF WATER VOLUME    
     VOLUME IN THE DOMAIN :   0.1641706E+10 M3
     FLUX BOUNDARY    1:    -399045.6     M3/S  ( >0 : ENTERING  <0 : EXITING )
     RELATIVE ERROR IN VOLUME AT T =        2000.     S :    0.2223524E-03

================================================================================
 ITERATION       60    TIME: 50 MN   0.0000 S   (     3000.0000 S)
--------------------------------------------------------------------------------
                          ADVECTION STEP          
--------------------------------------------------------------------------------
                    DIFFUSION-PROPAGATION STEP    
 EQUNOR (BIEF) :        9 ITERATIONS, RELATIVE PRECISION:   0.8261463E-03
--------------------------------------------------------------------------------
                       BALANCE OF WATER VOLUME    
     VOLUME IN THE DOMAIN :   0.1361936E+10 M3
     FLUX BOUNDARY    1:    -189244.0     M3/S  ( >0 : ENTERING  <0 : EXITING )
     RELATIVE ERROR IN VOLUME AT T =        3000.     S :    0.1566748E-03

================================================================================
 ITERATION       80    TIME:  1 H  6 MIN  40.0000 S   (     4000.0000 S)
--------------------------------------------------------------------------------
                          ADVECTION STEP          
--------------------------------------------------------------------------------
                    DIFFUSION-PROPAGATION STEP    
 EQUNOR (BIEF) :        8 ITERATIONS, RELATIVE PRECISION:   0.7094873E-03
--------------------------------------------------------------------------------
                       BALANCE OF WATER VOLUME    
     VOLUME IN THE DOMAIN :   0.1221310E+10 M3
     FLUX BOUNDARY    1:    -102636.2     M3/S  ( >0 : ENTERING  <0 : EXITING )
     RELATIVE ERROR IN VOLUME AT T =        4000.     S :    0.5889198E-04

================================================================================
 ITERATION      100    TIME:  1 H 23 MIN  20.0000 S   (     5000.0000 S)
--------------------------------------------------------------------------------
                          ADVECTION STEP          
--------------------------------------------------------------------------------
                    DIFFUSION-PROPAGATION STEP    
 EQUNOR (BIEF) :        8 ITERATIONS, RELATIVE PRECISION:   0.8034863E-03
--------------------------------------------------------------------------------
                       BALANCE OF WATER VOLUME    
     VOLUME IN THE DOMAIN :   0.1139166E+10 M3
     FLUX BOUNDARY    1:    -67472.60     M3/S  ( >0 : ENTERING  <0 : EXITING )
     RELATIVE ERROR IN VOLUME AT T =        5000.     S :    0.4131770E-04

================================================================================
 ITERATION      120    TIME:  1 H 40 MIN   0.0000 S   (     6000.0000 S)
--------------------------------------------------------------------------------
                          ADVECTION STEP          
--------------------------------------------------------------------------------
                    DIFFUSION-PROPAGATION STEP    
 EQUNOR (BIEF) :        8 ITERATIONS, RELATIVE PRECISION:   0.8831636E-03
--------------------------------------------------------------------------------
                       BALANCE OF WATER VOLUME    
     VOLUME IN THE DOMAIN :   0.1077854E+10 M3
     FLUX BOUNDARY    1:    -56193.02     M3/S  ( >0 : ENTERING  <0 : EXITING )
     RELATIVE ERROR IN VOLUME AT T =        6000.     S :    0.4308131E-04

================================================================================
 ITERATION      140    TIME:  1 H 56 MIN  40.0000 S   (     7000.0000 S)
--------------------------------------------------------------------------------
                          ADVECTION STEP          
--------------------------------------------------------------------------------
                    DIFFUSION-PROPAGATION STEP    
 EQUNOR (BIEF) :        8 ITERATIONS, RELATIVE PRECISION:   0.9578016E-03
--------------------------------------------------------------------------------
                       BALANCE OF WATER VOLUME    
     VOLUME IN THE DOMAIN :   0.1022912E+10 M3
     FLUX BOUNDARY    1:    -52328.16     M3/S  ( >0 : ENTERING  <0 : EXITING )
     RELATIVE ERROR IN VOLUME AT T =        7000.     S :    0.2672832E-04

================================================================================
 ITERATION      160    TIME:  2 H 13 MIN  20.0000 S   (     8000.0000 S)
--------------------------------------------------------------------------------
                          ADVECTION STEP          
--------------------------------------------------------------------------------
                    DIFFUSION-PROPAGATION STEP    
 EQUNOR (BIEF) :        7 ITERATIONS, RELATIVE PRECISION:   0.8042642E-03
--------------------------------------------------------------------------------
                       BALANCE OF WATER VOLUME    
     VOLUME IN THE DOMAIN :   0.9732900E+09 M3
     FLUX BOUNDARY    1:    -45840.08     M3/S  ( >0 : ENTERING  <0 : EXITING )
     RELATIVE ERROR IN VOLUME AT T =        8000.     S :    0.9451066E-05

================================================================================
 ITERATION      180    TIME:  2 H 30 MIN   0.0000 S   (     9000.0000 S)
--------------------------------------------------------------------------------
                          ADVECTION STEP          
--------------------------------------------------------------------------------
                    DIFFUSION-PROPAGATION STEP    
 EQUNOR (BIEF) :        7 ITERATIONS, RELATIVE PRECISION:   0.8504513E-03
--------------------------------------------------------------------------------
                       BALANCE OF WATER VOLUME    
     VOLUME IN THE DOMAIN :   0.9323161E+09 M3
     FLUX BOUNDARY    1:    -36352.35     M3/S  ( >0 : ENTERING  <0 : EXITING )
     RELATIVE ERROR IN VOLUME AT T =        9000.     S :   -0.2018299E-05

================================================================================
 ITERATION      200    TIME:  2 H 46 MIN  40.0000 S   (    10000.0000 S)
--------------------------------------------------------------------------------
                          ADVECTION STEP          
--------------------------------------------------------------------------------
                    DIFFUSION-PROPAGATION STEP    
 EQUNOR (BIEF) :        6 ITERATIONS, RELATIVE PRECISION:   0.9984823E-03
--------------------------------------------------------------------------------
                       BALANCE OF WATER VOLUME    
     VOLUME IN THE DOMAIN :   0.9006867E+09 M3
     FLUX BOUNDARY    1:    -27714.95     M3/S  ( >0 : ENTERING  <0 : EXITING )
     RELATIVE ERROR IN VOLUME AT T =       0.1000E+05 S :   -0.7447526E-05

================================================================================
