\relax 
\catcode`:\active
\catcode`;\active
\catcode`!\active
\catcode`?\active
\select@language{french}
\@writefile{toc}{\select@language{french}}
\@writefile{lof}{\select@language{french}}
\@writefile{lot}{\select@language{french}}
\@writefile{lof}{\contentsline {figure}{\numberline {1}{\ignorespaces Profil en travers}}{1}}
\newlabel{Imag1}{{1}{1}}
\@writefile{lof}{\contentsline {figure}{\numberline {2}{\ignorespaces Profils en long de la ligne d'eau. Résultats obtenus avec un pas de discrétisation spatiale de $100\unhbox \voidb@x \hbox { } m$}}{2}}
\newlabel{fig2}{{2}{2}}
\@writefile{lof}{\contentsline {figure}{\numberline {3}{\ignorespaces Profils en long du début dans le lit mineur. Résultats obtenus avec un pas de discrétisation spatiale de $100\unhbox \voidb@x \hbox { } m$}}{3}}
\newlabel{fig3}{{3}{3}}
\@writefile{lof}{\contentsline {figure}{\numberline {4}{\ignorespaces Profils en long du début dans le lit majeur. Résultats obtenus avec un pas de discrétisation spatiale de $100\unhbox \voidb@x \hbox { } m$}}{3}}
\newlabel{fig4}{{4}{3}}
