\relax 
\catcode`:\active
\catcode`;\active
\catcode`!\active
\catcode`?\active
\select@language{french}
\@writefile{toc}{\select@language{french}}
\@writefile{lof}{\select@language{french}}
\@writefile{lot}{\select@language{french}}
\@writefile{lof}{\contentsline {figure}{\numberline {1}{\ignorespaces Hauteurs d'eau compar\IeC {\'e}es en fin de simulation}}{2}}
\newlabel{fig1}{{1}{2}}
\@writefile{lof}{\contentsline {figure}{\numberline {2}{\ignorespaces D\IeC {\'e}bits compar\IeC {\'e}s en fin de simulation}}{2}}
\newlabel{fig2}{{2}{2}}
