\relax 
\catcode`:\active
\catcode`;\active
\catcode`!\active
\catcode`?\active
\select@language{french}
\@writefile{toc}{\select@language{french}}
\@writefile{lof}{\select@language{french}}
\@writefile{lot}{\select@language{french}}
\@writefile{lof}{\contentsline {figure}{\numberline {1}{\ignorespaces Profil en long du canal}}{3}}
\newlabel{fig1}{{1}{3}}
\@writefile{lof}{\contentsline {figure}{\numberline {2}{\ignorespaces Cote de l'écoulement fluvial avec choc}}{4}}
\newlabel{fig2}{{2}{4}}
\@writefile{lof}{\contentsline {figure}{\numberline {3}{\ignorespaces Débit de l'écoulement fluvial avec choc}}{4}}
\newlabel{fig3}{{3}{4}}
\@writefile{lof}{\contentsline {figure}{\numberline {4}{\ignorespaces Cote de l'écoulement fluvial sans choc}}{5}}
\newlabel{fig4}{{4}{5}}
\@writefile{lof}{\contentsline {figure}{\numberline {5}{\ignorespaces Débit de l'écoulement fluvial sans choc}}{5}}
\newlabel{fig5}{{5}{5}}
