 SLAVE  PROCESSOR NUMBER            3  IN THE GROUP OF            6
 EXECUTABLE FILE: /home/orseausy/Git/navtel/sources/TELBOT/opentelemac/v7p2r2/examples/telemac2d/pildepon/t2d_pildepon.cas_2020-03-21-18h58min10s/A.EXE
 BARRIER PASSED
 LISTING OF TELEMAC2D------------------------------------------------------------------------------

                TTTTT  EEEEE  L      EEEEE  M   M  AAAAA  CCCCC
                  T    E      L      E      MM MM  A   A  C    
                  T    EEE    L      EEE    M M M  AAAAA  C    
                  T    E      L      E      M   M  A   A  C    
                  T    EEEEE  LLLLL  EEEEE  M   M  A   A  CCCCC
                                                               
                        2D    VERSION TRUNK  FORTRAN 2003       







                        ~^~^~^~^~^~^~^~^~^~^~^^~^~^~^~^~^~     
                          ~                            ~       
                               \   '    o      '               
                               /\ o       \  o                 
                             >=)'>    '   /\ '                 
                               \/   \   >=)'>        ~         
                               /    /\    \/                   
                        ~         >=)'>   /     .              
                                    \/                   )     
                                    /                   (      
                                          ~          )   )     
                          }     ~              (    (   (      
                         {                      )    )   )     
                          }  }         .       (    (   (      
                         {  {               /^^^^^^^^^^^^      
                        ^^^^^^^^^\         /                   
                                  ^^^^^^^^^                    






  

                   ********************************************
                   *               LECDON:                    *
                   *        AFTER CALLING DAMOCLES            *
                   *        CHECKING OF DATA  READ            *
                   *         IN THE STEERING FILE             *
                   ********************************************

 LECDON: FINITE VOLUME SCHEME ON THE TRACER      2
 IMPOSED VALUE: IMPLICITATION = 0.
 LECDON : FINITE VOLUME SCHEME ON THE TRACER      2
 IMPOSED VALUE: SUPG OPTION = 0 FOR DEPTH
 LECDON: FINITE VOLUME SCHEME ON THE TRACER      3
 IMPOSED VALUE: IMPLICITATION = 0.
 LECDON : FINITE VOLUME SCHEME ON THE TRACER      3
 IMPOSED VALUE: SUPG OPTION = 0 FOR DEPTH
 LECDON: FINITE VOLUME SCHEME ON THE TRACER      4
 IMPOSED VALUE: IMPLICITATION = 0.
 LECDON : FINITE VOLUME SCHEME ON THE TRACER      4
 IMPOSED VALUE: SUPG OPTION = 0 FOR DEPTH
 LECDON: FINITE VOLUME SCHEME ON THE TRACER      5
 IMPOSED VALUE: IMPLICITATION = 0.
 LECDON : FINITE VOLUME SCHEME ON THE TRACER      5
 IMPOSED VALUE: SUPG OPTION = 0 FOR DEPTH
 LECDON: FINITE VOLUME SCHEME ON THE TRACER      6
 IMPOSED VALUE: IMPLICITATION = 0.
 LECDON : FINITE VOLUME SCHEME ON THE TRACER      6
 IMPOSED VALUE: SUPG OPTION = 0 FOR DEPTH
 LECDON: FINITE VOLUME SCHEME ON THE TRACER      7
 IMPOSED VALUE: IMPLICITATION = 0.
 LECDON : FINITE VOLUME SCHEME ON THE TRACER      7
 IMPOSED VALUE: SUPG OPTION = 0 FOR DEPTH
 LECDON: FINITE VOLUME SCHEME ON THE TRACER      8
 IMPOSED VALUE: IMPLICITATION = 0.
 LECDON : FINITE VOLUME SCHEME ON THE TRACER      8
 IMPOSED VALUE: SUPG OPTION = 0 FOR DEPTH
 LECDON: FINITE VOLUME SCHEME ON THE TRACER      9
 IMPOSED VALUE: IMPLICITATION = 0.
 LECDON : FINITE VOLUME SCHEME ON THE TRACER      9
 IMPOSED VALUE: SUPG OPTION = 0 FOR DEPTH

 EXITING LECDON. NAME OF THE STUDY:
 TELEMAC 2D : RIVIERE AVEC DEUX PILES DE PONT$                           

 OPENING FILES FOR TELEMAC2D               
  - FILE    /home/orseausy/Git/navtel/sources/TELBOT/opentelemac/v7p2r2/examples/telemac2d/pildepon/t2d_pildepon.cas_2020-03-21-18h58min10s/T2DGEO00005-00003 OF TYPE BIG_ENDIAN   
  - FILE    /home/orseausy/Git/navtel/sources/TELBOT/opentelemac/v7p2r2/examples/telemac2d/pildepon/t2d_pildepon.cas_2020-03-21-18h58min10s/T2DGEO00005-00003 IS SINGLE PRECISION 
