\relax 
\catcode`:\active
\catcode`;\active
\catcode`!\active
\catcode`?\active
\select@language{french}
\@writefile{toc}{\select@language{french}}
\@writefile{lof}{\select@language{french}}
\@writefile{lot}{\select@language{french}}
\@writefile{lof}{\contentsline {figure}{\numberline {1}{\ignorespaces Profils en long de la ligne d'eau. Résultats obtenus avec un pas de discrétisation spatiale de $100\unhbox \voidb@x \hbox { } m$}}{2}}
\newlabel{fig1}{{1}{2}}
