\relax 
\catcode`:\active
\catcode`;\active
\catcode`!\active
\catcode`?\active
\select@language{french}
\@writefile{toc}{\select@language{french}}
\@writefile{lof}{\select@language{french}}
\@writefile{lot}{\select@language{french}}
\newlabel{Imag1}{{}{1}}
\newlabel{Imag1}{{}{2}}
\@writefile{lof}{\contentsline {figure}{\numberline {1}{\ignorespaces Erreur relative sur les hauteurs d'eau}}{3}}
\newlabel{fig3}{{1}{3}}
\@writefile{lof}{\contentsline {figure}{\numberline {2}{\ignorespaces Comparaison des 2 modélisations}}{4}}
\newlabel{fig4}{{2}{4}}
\@writefile{lof}{\contentsline {figure}{\numberline {3}{\ignorespaces Comparaison des différentes modélisations}}{4}}
\newlabel{fig5}{{3}{4}}
