 SLAVE  PROCESSOR NUMBER            1  IN THE GROUP OF            8
 EXECUTABLE FILE: /home/orseausy/opentelemac/trunk/examples/sisyphe/bosse_vase/t2d_bosse_vase-t2d.cas_2018-07-25-09h34min33s/A.EXE
 BARRIER PASSED
 LISTING OF TELEMAC2D------------------------------------------------------------------------------

                TTTTT  EEEEE  L      EEEEE  M   M  AAAAA  CCCCC
                  T    E      L      E      MM MM  A   A  C    
                  T    EEE    L      EEE    M M M  AAAAA  C    
                  T    E      L      E      M   M  A   A  C    
                  T    EEEEE  LLLLL  EEEEE  M   M  A   A  CCCCC
                                                               
                        2D    VERSION TRUNK  FORTRAN 2003       







                        ~^~^~^~^~^~^~^~^~^~^~^^~^~^~^~^~^~     
                          ~                            ~       
                               \   '    o      '               
                               /\ o       \  o                 
                             >=)'>    '   /\ '                 
                               \/   \   >=)'>        ~         
                               /    /\    \/                   
                        ~         >=)'>   /     .              
                                    \/                   )     
                                    /                   (      
                                          ~          )   )     
                          }     ~              (    (   (      
                         {                      )    )   )     
                          }  }         .       (    (   (      
                         {  {               /^^^^^^^^^^^^      
                        ^^^^^^^^^\         /                   
                                  ^^^^^^^^^                    






  

                   ********************************************
                   *               LECDON:                    *
                   *        AFTER CALLING DAMOCLES            *
                   *        CHECKING OF DATA  READ            *
                   *         IN THE STEERING FILE             *
                   ********************************************


 EXITING LECDON. NAME OF THE STUDY:
  Telemac2d-Sisyphe                                                      

 OPENING FILES FOR TELEMAC2D               
  - FILE    /home/orseausy/opentelemac/trunk/examples/sisyphe/bosse_vase/t2d_bosse_vase-t2d.cas_2018-07-25-09h34min33s/T2DGEO00007-00001 OF TYPE BIG_ENDIAN   
  - FILE    /home/orseausy/opentelemac/trunk/examples/sisyphe/bosse_vase/t2d_bosse_vase-t2d.cas_2018-07-25-09h34min33s/T2DGEO00007-00001 IS SINGLE PRECISION 
  - FILE    /home/orseausy/opentelemac/trunk/examples/sisyphe/bosse_vase/t2d_bosse_vase-t2d.cas_2018-07-25-09h34min33s/T2DPRE00007-00001 OF TYPE BIG_ENDIAN   
  - FILE    /home/orseausy/opentelemac/trunk/examples/sisyphe/bosse_vase/t2d_bosse_vase-t2d.cas_2018-07-25-09h34min33s/T2DPRE00007-00001 IS SINGLE PRECISION 



                          *****************************
                          *    MEMORY ORGANIZATION    *
                          *****************************



 READ_MESH_INFO: TITLE= canal                                                                   
            NUMBER OF ELEMENTS:      205
            NUMBER OF POINTS:      124

            FORMAT NOT INDICATED IN TITLE
  
 MXPTEL (BIEF) : MAXIMUM NUMBER OF ELEMENTS AROUND A POINT:   7
                 MAXIMUM NUMBER OF POINTS AROUND A POINT:   8
 (GLOBAL MESH)
 SEGBOR (BIEF) : NUMBER OF BOUNDARY SEGMENTS =     41
 INCLUDING THOSE DUE TO DOMAIN DECOMPOSITION
 CORRXY (BIEF):NO MODIFICATION OF COORDINATES

 MESH: MESH   ALLOCATED



                     *************************************
                     *    END OF MEMORY ORGANIZATION:    *
                     *************************************

 LISTING OF SISYPHE------------------------------------------------------------------------------





                   SSSS I   SSSS Y   Y PPPP  H   H EEEEE  
                  S     I  S      Y Y  P   P H   H E      
                   SSS  I   SSS    Y   PPPP  HHHHH EEEE   
                      S I      S   Y   P     H   H E      
                  SSSS  I  SSSS    Y   P     H   H EEEEE  
                                                          
                       VERSION TRUNK  FORTRAN 2003  







                                            ____             
                                     /^\   / -- )            
                                    / | \ (____/             
                                   / | | \ / /               
                                  /_|_|_|_/ /                
                                   |     / /                 
                    __    __    __ |    / /__    __    __    
                   [  ]__[  ]__[  ].   / /[  ]__[  ]__[  ]   
                   |__            ____/ /___           __|   
                      |          / .------  )         |      
                      |         / /        /          |      
                      |        / /        /           |      
                   ~~~~~~~~~~~~-----------~~~~~~~~~~~~~~~~~~ 






                     COUPLED WITH TELEMAC2D INTERNALLY  
  
 WARNING IN DICTIONARY:
 FOR KEYWORD: VARIABLES FOR GRAPHIC PRINTOUTS
 THE NUMBER OF DEFAULT VALUES            1  IS DIFFERENT FROM THE DECLARED SIZE            7
  
  
 WARNING IN DICTIONARY:
 FOR KEYWORD: C-VSM PRINTOUT SELECTION
 THE NUMBER OF DEFAULT VALUES            1  IS DIFFERENT FROM THE DECLARED SIZE           13
  
  
 THE KEY-WORD: CRITICAL SHEAR VELOCITY FOR MUD DEPOSITION
 APPPEARS AT LEAST TWICE , THE LAST VALUE WILL BE KEPT...
  
  
 THE KEY-WORD: SETTLING VELOCITIES
 APPPEARS AT LEAST TWICE , THE LAST VALUE WILL BE KEPT...
  
  
 THE KEY-WORD: PARTHENIADES CONSTANT
 APPPEARS AT LEAST TWICE , THE LAST VALUE WILL BE KEPT...
  
  
 THE KEY-WORD: CRITICAL SHEAR VELOCITY FOR MUD DEPOSITION
 APPPEARS AT LEAST TWICE , THE LAST VALUE WILL BE KEPT...
  
  
 THE KEY-WORD: SETTLING VELOCITIES
 APPPEARS AT LEAST TWICE , THE LAST VALUE WILL BE KEPT...
  
  
 THE KEY-WORD: PARTHENIADES CONSTANT
 APPPEARS AT LEAST TWICE , THE LAST VALUE WILL BE KEPT...
  
  
 THE KEY-WORD: CRITICAL SHEAR VELOCITY FOR MUD DEPOSITION
 APPPEARS AT LEAST TWICE , THE LAST VALUE WILL BE KEPT...
  
  
 THE KEY-WORD: SETTLING VELOCITIES
 APPPEARS AT LEAST TWICE , THE LAST VALUE WILL BE KEPT...
  
  
 THE KEY-WORD: PARTHENIADES CONSTANT
 APPPEARS AT LEAST TWICE , THE LAST VALUE WILL BE KEPT...
  
  
 DIFFERENT NUMBER OF PARALLEL PROCESSORS:
 DECLARED BEFORE (CASE OF COUPLING ?):           8
 SISYPHE :           0
 VALUE            8  IS KEPT

                   ********************************************
                   *               LECDON:                    *
                   *        AFTER CALLING DAMOCLES            *
                   *        CHECKING OF DATA  READ            *
                   *         IN THE STEERING FILE             *
                   ********************************************

 OPENING FILES FOR SISYPHE                 
  - FILE    /home/orseausy/opentelemac/trunk/examples/sisyphe/bosse_vase/t2d_bosse_vase-t2d.cas_2018-07-25-09h34min33s/SISGEO00007-00001 OF TYPE BIG_ENDIAN   
  - FILE    /home/orseausy/opentelemac/trunk/examples/sisyphe/bosse_vase/t2d_bosse_vase-t2d.cas_2018-07-25-09h34min33s/SISGEO00007-00001 IS SINGLE PRECISION 



                     *******************************
                     *     MEMORY ORGANISATION     *
                     *******************************



 READ_MESH_INFO: TITLE= canal                                                                   
            NUMBER OF ELEMENTS:      205
            NUMBER OF POINTS:      124

            FORMAT NOT INDICATED IN TITLE
  
 MXPTEL (BIEF) : MAXIMUM NUMBER OF ELEMENTS AROUND A POINT:   7
                 MAXIMUM NUMBER OF POINTS AROUND A POINT:   8
 (GLOBAL MESH)
 SEGBOR (BIEF) : NUMBER OF BOUNDARY SEGMENTS =     41
 INCLUDING THOSE DUE TO DOMAIN DECOMPOSITION
 CORRXY (BIEF):NO MODIFICATION OF COORDINATES

 MESH: MESH_S ALLOCATED



                     *************************************
                     *    END OF MEMORY ORGANIZATION:    *
                     *************************************

 INITIALIZING TELEMAC2D FOR        
 INBIEF (BIEF): NOT A VECTOR MACHINE (ACCORDING TO YOUR DATA)

 FONSTR (BIEF): NO BATHYMETRY IN THE GEOMETRY FILE
                AND NO BATHYMETRY FILE. THE BOTTOM
                LEVEL IS FIXED TO ZERO BUT STILL
                CAN BE MODIFIED IN CORFON.

 STRCHE (BIEF): NO MODIFICATION OF FRICTION

  
 NUMBER OF LIQUID BOUNDARIES:           2

 CORFON (TELEMAC2D): NO MODIFICATION OF BOTTOM



 TITLE OF PREVIOUS COMPUTATION:  Telemac2d-Sisyphe                                                      

 NAME: VELOCITY U        UNIT: M/S             
 NAME: VELOCITY V        UNIT: M/S             
 NAME: WATER DEPTH       UNIT: M               
 NAME: FREE SURFACE      UNIT: M               
 NAME: BOTTOM            UNIT: M               
 NAME: SCALAR FLOWRATE   UNIT: M2/S            
 NAME: COURANT NUMBER    UNIT:                 
 NAME: FRICTION VEL.     UNIT: M/S             

 READ_DATASET : READ OF RECORD     2


 TIME OF RECORD:     1000.000     S
 ELAPSED TIME RESET TO ZERO

================================================================================
 ITERATION        0    TIME:   0.0000 S
 PRERES: MAXIMUM COURANT NUMBER:    0.5681499    
 TELEMAC2D COUPLED WITH: SISYPHE                                                                                                                                         
 TELEMAC-2D: INTERNAL COUPLING WITH SISYPHE
 PART 0 : INITIALISING SISYPHE
 INBIEF (BIEF): NOT A VECTOR MACHINE (ACCORDING TO YOUR DATA)
  
 LIQUID BOUNDARIES:           2

 FONSTR (BIEF): NO BATHYMETRY IN THE GEOMETRY FILE
                AND NO BATHYMETRY FILE. THE BOTTOM
                LEVEL IS FIXED TO ZERO BUT STILL
                CAN BE MODIFIED IN CORFON.

 STRCHE (BIEF): NO MODIFICATION OF FRICTION

 INITIALISATION EN CAS DE COUPLAGE : PART=           0
 INITIAL MASS OF THE MUD BED:     875430.58461     KG
 QSCL REINITIALISED IN INIT_TRANSPORT
 FOR CLASS            1
 QS REINITIALISED IN INIT_TRANSPORT

================================================================================
 ITERATION        0    TIME:   0.0000 S

 SISYPHE COUPLED WITH: TELEMAC2D               
 TELEMAC2D INITIALIZED
 USING STREAMLINE VERSION 7.3 FOR CHARACTERISTICS
 INITIAL QUANTITY IN SUSPENSION FOR CLASS  1 :    0.1012590E-01 M3

================================================================================
 ITERATION      100    TIME:  10.0000 S
--------------------------------------------------------------------------------
                          ADVECTION STEP          
--------------------------------------------------------------------------------
                    DIFFUSION-PROPAGATION STEP    
 GRACJG (BIEF) :        2 ITERATIONS, ABSOLUTE PRECISION:   0.8035672E-06
--------------------------------------------------------------------------------
                       BALANCE OF WATER VOLUME    
     VOLUME IN THE DOMAIN :    10.12353     M3
     FLUX BOUNDARY    1:   -0.2505111     M3/S  ( >0 : ENTERING  <0 : EXITING )
     FLUX BOUNDARY    2:    0.2500038     M3/S  ( >0 : ENTERING  <0 : EXITING )
     RELATIVE ERROR IN VOLUME AT T =        10.00     S :   -0.1130181E-07

================================================================================
 ITERATION      100    TIME:  10.0000 S

 CVTRVF (BIEF):      1 SUB-ITERATIONS
 MAXIMAL CONCENTRATION    :    0.9996819E-03 %, NODE =      486
 MINIMAL CONCENTRATION    :    0.9823458E-03 %, NODE =      413
 MAXIMAL EVOLUTION        :    0.3936851E-05  , NODE =      486
 MINIMAL EVOLUTION        :    0.2050724E-05  , NODE =      456
 MAX. CFL FOR SUSPENSION  :    0.5697091      , NODE =       82

 QUANTITY OF CLASS                  1 IN SUSPENSION AT TIME T    :     26.444862737     KG
 QUANTITY OF CLASS                  1 IN SUSPENSION AT TIME T+DT :     26.441512110     KG
 BOUNDARY   1 FLUX TRACER  1 =   -0.65225523216     ( >0 : ENTERING  <0 : EXITING )
 BOUNDARY   2 FLUX TRACER  1 =    0.66251003348     ( >0 : ENTERING  <0 : EXITING )
 VOLUME OF DEPOSIT           :    0.43764096918E-02 KG
 ERROR ON VOLUME             :   -0.30287707584E-06

 TOTAL MAXIMAL EVOLUTION  :    0.3939235E-03 NODE  :    486
 TOTAL MINIMAL EVOLUTION  :    0.2092493E-03 NODE  :    456

================================================================================
 ITERATION      200    TIME:  20.0000 S
--------------------------------------------------------------------------------
                          ADVECTION STEP          
--------------------------------------------------------------------------------
                    DIFFUSION-PROPAGATION STEP    
 GRACJG (BIEF) :        1 ITERATIONS, ABSOLUTE PRECISION:   0.9543921E-06
--------------------------------------------------------------------------------
                       BALANCE OF WATER VOLUME    
     VOLUME IN THE DOMAIN :    10.11679     M3
     FLUX BOUNDARY    1:   -0.2506802     M3/S  ( >0 : ENTERING  <0 : EXITING )
     FLUX BOUNDARY    2:    0.2499995     M3/S  ( >0 : ENTERING  <0 : EXITING )
     RELATIVE ERROR IN VOLUME AT T =        20.00     S :    0.1049048E-08

================================================================================
 ITERATION      200    TIME:  20.0000 S

 CVTRVF (BIEF):      1 SUB-ITERATIONS
 MAXIMAL CONCENTRATION    :    0.9996823E-03 %, NODE =      486
 MINIMAL CONCENTRATION    :    0.9657466E-03 %, NODE =      406
 MAXIMAL EVOLUTION        :    0.3931363E-05  , NODE =      486
 MINIMAL EVOLUTION        :    0.1957929E-05  , NODE =      861
 MAX. CFL FOR SUSPENSION  :    0.5703961      , NODE =      568

 QUANTITY OF CLASS                  1 IN SUSPENSION AT TIME T    :     26.166913533     KG
 QUANTITY OF CLASS                  1 IN SUSPENSION AT TIME T+DT :     26.164727916     KG
 BOUNDARY   1 FLUX TRACER  1 =   -0.64165715467     ( >0 : ENTERING  <0 : EXITING )
 BOUNDARY   2 FLUX TRACER  1 =    0.66249875835     ( >0 : ENTERING  <0 : EXITING )
 VOLUME OF DEPOSIT           :    0.42697472963E-02 KG
 ERROR ON VOLUME             :    0.29958113944E-07

 TOTAL MAXIMAL EVOLUTION  :    0.7875547E-03 NODE  :    486
 TOTAL MINIMAL EVOLUTION  :    0.4085630E-03 NODE  :    456

================================================================================
 ITERATION      300    TIME:  30.0000 S
--------------------------------------------------------------------------------
                          ADVECTION STEP          
--------------------------------------------------------------------------------
                    DIFFUSION-PROPAGATION STEP    
 GRACJG (BIEF) :        2 ITERATIONS, ABSOLUTE PRECISION:   0.1617240E-06
--------------------------------------------------------------------------------
                       BALANCE OF WATER VOLUME    
     VOLUME IN THE DOMAIN :    10.10852     M3
     FLUX BOUNDARY    1:   -0.2506253     M3/S  ( >0 : ENTERING  <0 : EXITING )
     FLUX BOUNDARY    2:    0.2500034     M3/S  ( >0 : ENTERING  <0 : EXITING )
     RELATIVE ERROR IN VOLUME AT T =        30.00     S :   -0.5471886E-08

================================================================================
 ITERATION      300    TIME:  30.0000 S

 CVTRVF (BIEF):      1 SUB-ITERATIONS
 MAXIMAL CONCENTRATION    :    0.9996830E-03 %, NODE =      486
 MINIMAL CONCENTRATION    :    0.9524915E-03 %, NODE =      406
 MAXIMAL EVOLUTION        :    0.3923596E-05  , NODE =      486
 MINIMAL EVOLUTION        :    0.1957204E-05  , NODE =      375
 MAX. CFL FOR SUSPENSION  :    0.5706332      , NODE =      568

 QUANTITY OF CLASS                  1 IN SUSPENSION AT TIME T    :     25.992041641     KG
 QUANTITY OF CLASS                  1 IN SUSPENSION AT TIME T+DT :     25.990807845     KG
 BOUNDARY   1 FLUX TRACER  1 =   -0.63270978573     ( >0 : ENTERING  <0 : EXITING )
 BOUNDARY   2 FLUX TRACER  1 =    0.66250897138     ( >0 : ENTERING  <0 : EXITING )
 VOLUME OF DEPOSIT           :    0.42138560675E-02 KG
 ERROR ON VOLUME             :   -0.14145727338E-06

 TOTAL MAXIMAL EVOLUTION  :    0.1180419E-02 NODE  :    486
 TOTAL MINIMAL EVOLUTION  :    0.6042092E-03 NODE  :    456

================================================================================
 ITERATION      400    TIME:  40.0000 S
--------------------------------------------------------------------------------
                          ADVECTION STEP          
--------------------------------------------------------------------------------
                    DIFFUSION-PROPAGATION STEP    
 GRACJG (BIEF) :        1 ITERATIONS, ABSOLUTE PRECISION:   0.4501096E-06
--------------------------------------------------------------------------------
                       BALANCE OF WATER VOLUME    
     VOLUME IN THE DOMAIN :    10.10291     M3
     FLUX BOUNDARY    1:   -0.2503389     M3/S  ( >0 : ENTERING  <0 : EXITING )
     FLUX BOUNDARY    2:    0.2499994     M3/S  ( >0 : ENTERING  <0 : EXITING )
     RELATIVE ERROR IN VOLUME AT T =        40.00     S :   -0.1438834E-07

================================================================================
 ITERATION      400    TIME:  40.0000 S

 CVTRVF (BIEF):      1 SUB-ITERATIONS
 MAXIMAL CONCENTRATION    :    0.9996833E-03 %, NODE =      486
 MINIMAL CONCENTRATION    :    0.9394978E-03 %, NODE =        1
 MAXIMAL EVOLUTION        :    0.3919251E-05  , NODE =      486
 MINIMAL EVOLUTION        :    0.1953547E-05  , NODE =      375
 MAX. CFL FOR SUSPENSION  :    0.5702949      , NODE =      568

 QUANTITY OF CLASS                  1 IN SUSPENSION AT TIME T    :     25.917669839     KG
 QUANTITY OF CLASS                  1 IN SUSPENSION AT TIME T+DT :     25.917399288     KG
 BOUNDARY   1 FLUX TRACER  1 =   -0.62331781262     ( >0 : ENTERING  <0 : EXITING )
 BOUNDARY   2 FLUX TRACER  1 =    0.66249845489     ( >0 : ENTERING  <0 : EXITING )
 VOLUME OF DEPOSIT           :    0.41889830027E-02 KG
 ERROR ON VOLUME             :   -0.36724378405E-06

 TOTAL MAXIMAL EVOLUTION  :    0.1572770E-02 NODE  :    486
 TOTAL MINIMAL EVOLUTION  :    0.7995072E-03 NODE  :    861

================================================================================
 ITERATION      500    TIME:  50.0000 S
--------------------------------------------------------------------------------
                          ADVECTION STEP          
--------------------------------------------------------------------------------
                    DIFFUSION-PROPAGATION STEP    
 GRACJG (BIEF) :        2 ITERATIONS, ABSOLUTE PRECISION:   0.2790373E-06
--------------------------------------------------------------------------------
                       BALANCE OF WATER VOLUME    
     VOLUME IN THE DOMAIN :    10.09742     M3
     FLUX BOUNDARY    1:   -0.2503933     M3/S  ( >0 : ENTERING  <0 : EXITING )
     FLUX BOUNDARY    2:    0.2500011     M3/S  ( >0 : ENTERING  <0 : EXITING )
     RELATIVE ERROR IN VOLUME AT T =        50.00     S :   -0.5153085E-08

================================================================================
 ITERATION      500    TIME:  50.0000 S

 CVTRVF (BIEF):      1 SUB-ITERATIONS
 MAXIMAL CONCENTRATION    :    0.9996836E-03 %, NODE =      486
 MINIMAL CONCENTRATION    :    0.9368025E-03 %, NODE =      406
 MAXIMAL EVOLUTION        :    0.3916249E-05  , NODE =      486
 MINIMAL EVOLUTION        :    0.1954925E-05  , NODE =      375
 MAX. CFL FOR SUSPENSION  :    0.5707663      , NODE =      568

 QUANTITY OF CLASS                  1 IN SUSPENSION AT TIME T    :     25.898982806     KG
 QUANTITY OF CLASS                  1 IN SUSPENSION AT TIME T+DT :     25.898884965     KG
 BOUNDARY   1 FLUX TRACER  1 =   -0.62160934666     ( >0 : ENTERING  <0 : EXITING )
 BOUNDARY   2 FLUX TRACER  1 =    0.66250285792     ( >0 : ENTERING  <0 : EXITING )
 VOLUME OF DEPOSIT           :    0.41873250157E-02 KG
 ERROR ON VOLUME             :   -0.13259206225E-06

 TOTAL MAXIMAL EVOLUTION  :    0.1964498E-02 NODE  :    486
 TOTAL MINIMAL EVOLUTION  :    0.9951797E-03 NODE  :    861

================================================================================
 ITERATION      600    TIME:  1 MN   0.0000 S   (       60.0000 S)
--------------------------------------------------------------------------------
                          ADVECTION STEP          
--------------------------------------------------------------------------------
                    DIFFUSION-PROPAGATION STEP    
 GRACJG (BIEF) :        2 ITERATIONS, ABSOLUTE PRECISION:   0.3577646E-06
--------------------------------------------------------------------------------
                       BALANCE OF WATER VOLUME    
     VOLUME IN THE DOMAIN :    10.09320     M3
     FLUX BOUNDARY    1:   -0.2505769     M3/S  ( >0 : ENTERING  <0 : EXITING )
     FLUX BOUNDARY    2:    0.2500006     M3/S  ( >0 : ENTERING  <0 : EXITING )
     RELATIVE ERROR IN VOLUME AT T =        60.00     S :   -0.1015709E-07

================================================================================
 ITERATION      600    TIME:  1 MN   0.0000 S     (     60.0000 S)

 CVTRVF (BIEF):      1 SUB-ITERATIONS
 MAXIMAL CONCENTRATION    :    0.9996839E-03 %, NODE =      486
 MINIMAL CONCENTRATION    :    0.9368216E-03 %, NODE =      406
 MAXIMAL EVOLUTION        :    0.3911795E-05  , NODE =      486
 MINIMAL EVOLUTION        :    0.1952000E-05  , NODE =      375
 MAX. CFL FOR SUSPENSION  :    0.5715016      , NODE =       82

 QUANTITY OF CLASS                  1 IN SUSPENSION AT TIME T    :     25.889029217     KG
 QUANTITY OF CLASS                  1 IN SUSPENSION AT TIME T+DT :     25.888892753     KG
 BOUNDARY   1 FLUX TRACER  1 =   -0.62207604127     ( >0 : ENTERING  <0 : EXITING )
 BOUNDARY   2 FLUX TRACER  1 =    0.66250146119     ( >0 : ENTERING  <0 : EXITING )
 VOLUME OF DEPOSIT           :    0.41792665143E-02 KG
 ERROR ON VOLUME             :   -0.26052404900E-06

 TOTAL MAXIMAL EVOLUTION  :    0.2355947E-02 NODE  :    486
 TOTAL MINIMAL EVOLUTION  :    0.1190138E-02 NODE  :    861

================================================================================
 ITERATION      700    TIME:  1 MN  10.0000 S   (       70.0000 S)
--------------------------------------------------------------------------------
                          ADVECTION STEP          
--------------------------------------------------------------------------------
                    DIFFUSION-PROPAGATION STEP    
 GRACJG (BIEF) :        2 ITERATIONS, ABSOLUTE PRECISION:   0.2517628E-06
--------------------------------------------------------------------------------
                       BALANCE OF WATER VOLUME    
     VOLUME IN THE DOMAIN :    10.08690     M3
     FLUX BOUNDARY    1:   -0.2506075     M3/S  ( >0 : ENTERING  <0 : EXITING )
     FLUX BOUNDARY    2:    0.2499996     M3/S  ( >0 : ENTERING  <0 : EXITING )
     RELATIVE ERROR IN VOLUME AT T =        70.00     S :   -0.4025541E-08

================================================================================
 ITERATION      700    TIME:  1 MN  10.0000 S     (     70.0000 S)

 CVTRVF (BIEF):      1 SUB-ITERATIONS
 MAXIMAL CONCENTRATION    :    0.9996842E-03 %, NODE =      486
 MINIMAL CONCENTRATION    :    0.9369107E-03 %, NODE =      406
 MAXIMAL EVOLUTION        :    0.3907588E-05  , NODE =      486
 MINIMAL EVOLUTION        :    0.1938897E-05  , NODE =      375
 MAX. CFL FOR SUSPENSION  :    0.5719016      , NODE =      568

 QUANTITY OF CLASS                  1 IN SUSPENSION AT TIME T    :     25.874181548     KG
 QUANTITY OF CLASS                  1 IN SUSPENSION AT TIME T+DT :     25.874040844     KG
 BOUNDARY   1 FLUX TRACER  1 =   -0.62221136178     ( >0 : ENTERING  <0 : EXITING )
 BOUNDARY   2 FLUX TRACER  1 =    0.66249906150     ( >0 : ENTERING  <0 : EXITING )
 VOLUME OF DEPOSIT           :    0.41695762193E-02 KG
 ERROR ON VOLUME             :   -0.10262183176E-06

 TOTAL MAXIMAL EVOLUTION  :    0.2746951E-02 NODE  :    486
 TOTAL MINIMAL EVOLUTION  :    0.1384865E-02 NODE  :    861

================================================================================
 ITERATION      800    TIME:  1 MN  20.0000 S   (       80.0000 S)
--------------------------------------------------------------------------------
                          ADVECTION STEP          
--------------------------------------------------------------------------------
                    DIFFUSION-PROPAGATION STEP    
 GRACJG (BIEF) :        1 ITERATIONS, ABSOLUTE PRECISION:   0.8960609E-06
--------------------------------------------------------------------------------
                       BALANCE OF WATER VOLUME    
     VOLUME IN THE DOMAIN :    10.08027     M3
     FLUX BOUNDARY    1:   -0.2506768     M3/S  ( >0 : ENTERING  <0 : EXITING )
     FLUX BOUNDARY    2:    0.2500004     M3/S  ( >0 : ENTERING  <0 : EXITING )
     RELATIVE ERROR IN VOLUME AT T =        80.00     S :   -0.2317603E-07

================================================================================
 ITERATION      800    TIME:  1 MN  20.0000 S     (     80.0000 S)

 CVTRVF (BIEF):      1 SUB-ITERATIONS
 MAXIMAL CONCENTRATION    :    0.9996848E-03 %, NODE =      486
 MINIMAL CONCENTRATION    :    0.9370150E-03 %, NODE =      406
 MAXIMAL EVOLUTION        :    0.3900992E-05  , NODE =      486
 MINIMAL EVOLUTION        :    0.1938296E-05  , NODE =      375
 MAX. CFL FOR SUSPENSION  :    0.5723903      , NODE =      568

 QUANTITY OF CLASS                  1 IN SUSPENSION AT TIME T    :     25.858759863     KG
 QUANTITY OF CLASS                  1 IN SUSPENSION AT TIME T+DT :     25.858600684     KG
 BOUNDARY   1 FLUX TRACER  1 =   -0.62245263305     ( >0 : ENTERING  <0 : EXITING )
 BOUNDARY   2 FLUX TRACER  1 =    0.66250094081     ( >0 : ENTERING  <0 : EXITING )
 VOLUME OF DEPOSIT           :    0.41645877063E-02 KG
 ERROR ON VOLUME             :   -0.57751857735E-06

 TOTAL MAXIMAL EVOLUTION  :    0.3137355E-02 NODE  :    486
 TOTAL MINIMAL EVOLUTION  :    0.1578657E-02 NODE  :    861

================================================================================
 ITERATION      900    TIME:  1 MN  30.0000 S   (       90.0000 S)
--------------------------------------------------------------------------------
                          ADVECTION STEP          
--------------------------------------------------------------------------------
                    DIFFUSION-PROPAGATION STEP    
 GRACJG (BIEF) :        1 ITERATIONS, ABSOLUTE PRECISION:   0.7404192E-06
--------------------------------------------------------------------------------
                       BALANCE OF WATER VOLUME    
     VOLUME IN THE DOMAIN :    10.07464     M3
     FLUX BOUNDARY    1:   -0.2505128     M3/S  ( >0 : ENTERING  <0 : EXITING )
     FLUX BOUNDARY    2:    0.2499994     M3/S  ( >0 : ENTERING  <0 : EXITING )
     RELATIVE ERROR IN VOLUME AT T =        90.00     S :   -0.2224331E-07

================================================================================
 ITERATION      900    TIME:  1 MN  30.0000 S     (     90.0000 S)

 CVTRVF (BIEF):      1 SUB-ITERATIONS
 MAXIMAL CONCENTRATION    :    0.9996852E-03 %, NODE =      486
 MINIMAL CONCENTRATION    :    0.9371010E-03 %, NODE =      406
 MAXIMAL EVOLUTION        :    0.3896025E-05  , NODE =      486
 MINIMAL EVOLUTION        :    0.1932422E-05  , NODE =      375
 MAX. CFL FOR SUSPENSION  :    0.5723379      , NODE =      568

 QUANTITY OF CLASS                  1 IN SUSPENSION AT TIME T    :     25.845512329     KG
 QUANTITY OF CLASS                  1 IN SUSPENSION AT TIME T+DT :     25.845392747     KG
 BOUNDARY   1 FLUX TRACER  1 =   -0.62210260591     ( >0 : ENTERING  <0 : EXITING )
 BOUNDARY   2 FLUX TRACER  1 =    0.66249835600     ( >0 : ENTERING  <0 : EXITING )
 VOLUME OF DEPOSIT           :    0.41597151430E-02 KG
 ERROR ON VOLUME             :   -0.55880078171E-06

 TOTAL MAXIMAL EVOLUTION  :    0.3527243E-02 NODE  :    486
 TOTAL MINIMAL EVOLUTION  :    0.1772131E-02 NODE  :    861

================================================================================
 ITERATION     1000    TIME:  1 MN  40.0000 S   (      100.0000 S)
--------------------------------------------------------------------------------
                          ADVECTION STEP          
--------------------------------------------------------------------------------
                    DIFFUSION-PROPAGATION STEP    
 GRACJG (BIEF) :        1 ITERATIONS, ABSOLUTE PRECISION:   0.9182481E-06
--------------------------------------------------------------------------------
                       BALANCE OF WATER VOLUME    
     VOLUME IN THE DOMAIN :    10.06916     M3
     FLUX BOUNDARY    1:   -0.2505166     M3/S  ( >0 : ENTERING  <0 : EXITING )
     FLUX BOUNDARY    2:    0.2500000     M3/S  ( >0 : ENTERING  <0 : EXITING )
     RELATIVE ERROR IN VOLUME AT T =        100.0     S :   -0.1243201E-07
 PRERES: MAXIMUM COURANT NUMBER:    0.5726841    

================================================================================
 ITERATION     1000    TIME:  1 MN  40.0000 S     (    100.0000 S)

 CVTRVF (BIEF):      1 SUB-ITERATIONS
 MAXIMAL CONCENTRATION    :    0.9996855E-03 %, NODE =      486
 MINIMAL CONCENTRATION    :    0.9371859E-03 %, NODE =      406
 MAXIMAL EVOLUTION        :    0.3891875E-05  , NODE =      486
 MINIMAL EVOLUTION        :    0.1931869E-05  , NODE =      375
 MAX. CFL FOR SUSPENSION  :    0.5726786      , NODE =      568

 QUANTITY OF CLASS                  1 IN SUSPENSION AT TIME T    :     25.832504286     KG
 QUANTITY OF CLASS                  1 IN SUSPENSION AT TIME T+DT :     25.832381357     KG
 BOUNDARY   1 FLUX TRACER  1 =   -0.62216834845     ( >0 : ENTERING  <0 : EXITING )
 BOUNDARY   2 FLUX TRACER  1 =    0.66250004467     ( >0 : ENTERING  <0 : EXITING )
 VOLUME OF DEPOSIT           :    0.41564145358E-02 KG
 ERROR ON VOLUME             :   -0.31643560296E-06

 TOTAL MAXIMAL EVOLUTION  :    0.3916595E-02 NODE  :    486
 TOTAL MINIMAL EVOLUTION  :    0.1965512E-02 NODE  :    861
 PRERES: MAXIMUM COURANT NUMBER:    0.5726841    

================================================================================
 ITERATION     1100    TIME:  1 MN  50.0000 S   (      110.0000 S)
--------------------------------------------------------------------------------
                          ADVECTION STEP          
--------------------------------------------------------------------------------
                    DIFFUSION-PROPAGATION STEP    
 GRACJG (BIEF) :        1 ITERATIONS, ABSOLUTE PRECISION:   0.5005722E-06
--------------------------------------------------------------------------------
                       BALANCE OF WATER VOLUME    
     VOLUME IN THE DOMAIN :    10.06411     M3
     FLUX BOUNDARY    1:   -0.2505918     M3/S  ( >0 : ENTERING  <0 : EXITING )
     FLUX BOUNDARY    2:    0.2499997     M3/S  ( >0 : ENTERING  <0 : EXITING )
     RELATIVE ERROR IN VOLUME AT T =        110.0     S :   -0.1268169E-07

================================================================================
 ITERATION     1100    TIME:  1 MN  50.0000 S     (    110.0000 S)

 CVTRVF (BIEF):      1 SUB-ITERATIONS
 MAXIMAL CONCENTRATION    :    0.9996859E-03 %, NODE =      486
 MINIMAL CONCENTRATION    :    0.9372568E-03 %, NODE =      406
 MAXIMAL EVOLUTION        :    0.3887016E-05  , NODE =      486
 MINIMAL EVOLUTION        :    0.1927407E-05  , NODE =      375
 MAX. CFL FOR SUSPENSION  :    0.5731735      , NODE =      568

 QUANTITY OF CLASS                  1 IN SUSPENSION AT TIME T    :     25.820624803     KG
 QUANTITY OF CLASS                  1 IN SUSPENSION AT TIME T+DT :     25.820485348     KG
 BOUNDARY   1 FLUX TRACER  1 =   -0.62240218164     ( >0 : ENTERING  <0 : EXITING )
 BOUNDARY   2 FLUX TRACER  1 =    0.66249915907     ( >0 : ENTERING  <0 : EXITING )
 VOLUME OF DEPOSIT           :    0.41494745528E-02 KG
 ERROR ON VOLUME             :   -0.32153760068E-06

 TOTAL MAXIMAL EVOLUTION  :    0.4305548E-02 NODE  :    486
 TOTAL MINIMAL EVOLUTION  :    0.2158350E-02 NODE  :    861

================================================================================
 ITERATION     1200    TIME:  1 MN  60.0000 S   (      120.0000 S)
--------------------------------------------------------------------------------
                          ADVECTION STEP          
--------------------------------------------------------------------------------
                    DIFFUSION-PROPAGATION STEP    
 GRACJG (BIEF) :        1 ITERATIONS, ABSOLUTE PRECISION:   0.3955640E-06
--------------------------------------------------------------------------------
                       BALANCE OF WATER VOLUME    
     VOLUME IN THE DOMAIN :    10.05812     M3
     FLUX BOUNDARY    1:   -0.2505924     M3/S  ( >0 : ENTERING  <0 : EXITING )
     FLUX BOUNDARY    2:    0.2499994     M3/S  ( >0 : ENTERING  <0 : EXITING )
     RELATIVE ERROR IN VOLUME AT T =        120.0     S :   -0.6873241E-08

================================================================================
 ITERATION     1200    TIME:  1 MN  60.0000 S     (    120.0000 S)

 CVTRVF (BIEF):      1 SUB-ITERATIONS
 MAXIMAL CONCENTRATION    :    0.9996863E-03 %, NODE =      486
 MINIMAL CONCENTRATION    :    0.9373452E-03 %, NODE =      406
 MAXIMAL EVOLUTION        :    0.3882410E-05  , NODE =      486
 MINIMAL EVOLUTION        :    0.1919906E-05  , NODE =      375
 MAX. CFL FOR SUSPENSION  :    0.5735007      , NODE =      568

 QUANTITY OF CLASS                  1 IN SUSPENSION AT TIME T    :     25.806544095     KG
 QUANTITY OF CLASS                  1 IN SUSPENSION AT TIME T+DT :     25.806405626     KG
 BOUNDARY   1 FLUX TRACER  1 =   -0.62246238204     ( >0 : ENTERING  <0 : EXITING )
 BOUNDARY   2 FLUX TRACER  1 =    0.66249846437     ( >0 : ENTERING  <0 : EXITING )
 VOLUME OF DEPOSIT           :    0.41422515642E-02 KG
 ERROR ON VOLUME             :   -0.17469285717E-06

 TOTAL MAXIMAL EVOLUTION  :    0.4694016E-02 NODE  :    486
 TOTAL MINIMAL EVOLUTION  :    0.2350833E-02 NODE  :    861

================================================================================
 ITERATION     1300    TIME:  2 MN  10.0000 S   (      130.0000 S)
--------------------------------------------------------------------------------
                          ADVECTION STEP          
--------------------------------------------------------------------------------
                    DIFFUSION-PROPAGATION STEP    
 GRACJG (BIEF) :        1 ITERATIONS, ABSOLUTE PRECISION:   0.8648197E-06
--------------------------------------------------------------------------------
                       BALANCE OF WATER VOLUME    
     VOLUME IN THE DOMAIN :    10.05211     M3
     FLUX BOUNDARY    1:   -0.2506253     M3/S  ( >0 : ENTERING  <0 : EXITING )
     FLUX BOUNDARY    2:    0.2499997     M3/S  ( >0 : ENTERING  <0 : EXITING )
     RELATIVE ERROR IN VOLUME AT T =        130.0     S :   -0.1626349E-07

================================================================================
 ITERATION     1300    TIME:  2 MN  10.0000 S     (    130.0000 S)

 CVTRVF (BIEF):      1 SUB-ITERATIONS
 MAXIMAL CONCENTRATION    :    0.9996867E-03 %, NODE =      486
 MINIMAL CONCENTRATION    :    0.9374381E-03 %, NODE =      406
 MAXIMAL EVOLUTION        :    0.3876610E-05  , NODE =      486
 MINIMAL EVOLUTION        :    0.1917478E-05  , NODE =      375
 MAX. CFL FOR SUSPENSION  :    0.5739052      , NODE =       82

 QUANTITY OF CLASS                  1 IN SUSPENSION AT TIME T    :     25.792473766     KG
 QUANTITY OF CLASS                  1 IN SUSPENSION AT TIME T+DT :     25.792326519     KG
 BOUNDARY   1 FLUX TRACER  1 =   -0.62260593424     ( >0 : ENTERING  <0 : EXITING )
 BOUNDARY   2 FLUX TRACER  1 =    0.66249917103     ( >0 : ENTERING  <0 : EXITING )
 VOLUME OF DEPOSIT           :    0.41369755054E-02 KG
 ERROR ON VOLUME             :   -0.40413200322E-06

 TOTAL MAXIMAL EVOLUTION  :    0.5081944E-02 NODE  :    486
 TOTAL MINIMAL EVOLUTION  :    0.2542672E-02 NODE  :    861

================================================================================
 ITERATION     1400    TIME:  2 MN  20.0000 S   (      140.0000 S)
--------------------------------------------------------------------------------
                          ADVECTION STEP          
--------------------------------------------------------------------------------
                    DIFFUSION-PROPAGATION STEP    
 GRACJG (BIEF) :        2 ITERATIONS, ABSOLUTE PRECISION:   0.1778297E-06
--------------------------------------------------------------------------------
                       BALANCE OF WATER VOLUME    
     VOLUME IN THE DOMAIN :    10.04650     M3
     FLUX BOUNDARY    1:   -0.2505419     M3/S  ( >0 : ENTERING  <0 : EXITING )
     FLUX BOUNDARY    2:    0.2499993     M3/S  ( >0 : ENTERING  <0 : EXITING )
     RELATIVE ERROR IN VOLUME AT T =        140.0     S :   -0.5092464E-08

================================================================================
 ITERATION     1400    TIME:  2 MN  20.0000 S     (    140.0000 S)

 CVTRVF (BIEF):      1 SUB-ITERATIONS
 MAXIMAL CONCENTRATION    :    0.9996871E-03 %, NODE =      486
 MINIMAL CONCENTRATION    :    0.9375232E-03 %, NODE =      406
 MAXIMAL EVOLUTION        :    0.3871724E-05  , NODE =      486
 MINIMAL EVOLUTION        :    0.1912369E-05  , NODE =      375
 MAX. CFL FOR SUSPENSION  :    0.5740410      , NODE =      568

 QUANTITY OF CLASS                  1 IN SUSPENSION AT TIME T    :     25.779281725     KG
 QUANTITY OF CLASS                  1 IN SUSPENSION AT TIME T+DT :     25.779154434     KG
 BOUNDARY   1 FLUX TRACER  1 =   -0.62245532820     ( >0 : ENTERING  <0 : EXITING )
 BOUNDARY   2 FLUX TRACER  1 =    0.66249820171     ( >0 : ENTERING  <0 : EXITING )
 VOLUME OF DEPOSIT           :    0.41317078285E-02 KG
 ERROR ON VOLUME             :   -0.12929614100E-06

 TOTAL MAXIMAL EVOLUTION  :    0.5469367E-02 NODE  :    486
 TOTAL MINIMAL EVOLUTION  :    0.2734166E-02 NODE  :    861

================================================================================
 ITERATION     1500    TIME:  2 MN  30.0000 S   (      150.0000 S)
--------------------------------------------------------------------------------
                          ADVECTION STEP          
--------------------------------------------------------------------------------
                    DIFFUSION-PROPAGATION STEP    
 GRACJG (BIEF) :        1 ITERATIONS, ABSOLUTE PRECISION:   0.8530328E-06
--------------------------------------------------------------------------------
                       BALANCE OF WATER VOLUME    
     VOLUME IN THE DOMAIN :    10.04097     M3
     FLUX BOUNDARY    1:   -0.2505511     M3/S  ( >0 : ENTERING  <0 : EXITING )
     FLUX BOUNDARY    2:    0.2499996     M3/S  ( >0 : ENTERING  <0 : EXITING )
     RELATIVE ERROR IN VOLUME AT T =        150.0     S :   -0.8532401E-08

================================================================================
 ITERATION     1500    TIME:  2 MN  30.0000 S     (    150.0000 S)

 CVTRVF (BIEF):      1 SUB-ITERATIONS
 MAXIMAL CONCENTRATION    :    0.9996875E-03 %, NODE =      486
 MINIMAL CONCENTRATION    :    0.9376077E-03 %, NODE =      406
 MAXIMAL EVOLUTION        :    0.3867064E-05  , NODE =      486
 MINIMAL EVOLUTION        :    0.1910139E-05  , NODE =      375
 MAX. CFL FOR SUSPENSION  :    0.5743875      , NODE =       82

 QUANTITY OF CLASS                  1 IN SUSPENSION AT TIME T    :     25.766224736     KG
 QUANTITY OF CLASS                  1 IN SUSPENSION AT TIME T+DT :     25.766094366     KG
 BOUNDARY   1 FLUX TRACER  1 =   -0.62253418967     ( >0 : ENTERING  <0 : EXITING )
 BOUNDARY   2 FLUX TRACER  1 =    0.66249895775     ( >0 : ENTERING  <0 : EXITING )
 VOLUME OF DEPOSIT           :    0.41270630900E-02 KG
 ERROR ON VOLUME             :   -0.21660668317E-06

 TOTAL MAXIMAL EVOLUTION  :    0.5856277E-02 NODE  :    486
 TOTAL MINIMAL EVOLUTION  :    0.2925371E-02 NODE  :    861

================================================================================
 ITERATION     1600    TIME:  2 MN  40.0000 S   (      160.0000 S)
--------------------------------------------------------------------------------
                          ADVECTION STEP          
--------------------------------------------------------------------------------
                    DIFFUSION-PROPAGATION STEP    
 GRACJG (BIEF) :        1 ITERATIONS, ABSOLUTE PRECISION:   0.9733262E-06
--------------------------------------------------------------------------------
                       BALANCE OF WATER VOLUME    
     VOLUME IN THE DOMAIN :    10.03560     M3
     FLUX BOUNDARY    1:   -0.2505779     M3/S  ( >0 : ENTERING  <0 : EXITING )
     FLUX BOUNDARY    2:    0.2499994     M3/S  ( >0 : ENTERING  <0 : EXITING )
     RELATIVE ERROR IN VOLUME AT T =        160.0     S :   -0.1069156E-07

================================================================================
 ITERATION     1600    TIME:  2 MN  40.0000 S     (    160.0000 S)

 CVTRVF (BIEF):      1 SUB-ITERATIONS
 MAXIMAL CONCENTRATION    :    0.9996879E-03 %, NODE =      486
 MINIMAL CONCENTRATION    :    0.9376867E-03 %, NODE =      406
 MAXIMAL EVOLUTION        :    0.3862117E-05  , NODE =      486
 MINIMAL EVOLUTION        :    0.1905430E-05  , NODE =      375
 MAX. CFL FOR SUSPENSION  :    0.5747759      , NODE =       82

 QUANTITY OF CLASS                  1 IN SUSPENSION AT TIME T    :     25.753609571     KG
 QUANTITY OF CLASS                  1 IN SUSPENSION AT TIME T+DT :     25.753473653     KG
 BOUNDARY   1 FLUX TRACER  1 =   -0.62265324463     ( >0 : ENTERING  <0 : EXITING )
 BOUNDARY   2 FLUX TRACER  1 =    0.66249847829     ( >0 : ENTERING  <0 : EXITING )
 VOLUME OF DEPOSIT           :    0.41207126342E-02 KG
 ERROR ON VOLUME             :   -0.27173987405E-06

 TOTAL MAXIMAL EVOLUTION  :    0.6242736E-02 NODE  :    486
 TOTAL MINIMAL EVOLUTION  :    0.3116101E-02 NODE  :    861

================================================================================
 ITERATION     1700    TIME:  2 MN  50.0000 S   (      170.0000 S)
--------------------------------------------------------------------------------
                          ADVECTION STEP          
--------------------------------------------------------------------------------
                    DIFFUSION-PROPAGATION STEP    
 GRACJG (BIEF) :        1 ITERATIONS, ABSOLUTE PRECISION:   0.6049863E-06
--------------------------------------------------------------------------------
                       BALANCE OF WATER VOLUME    
     VOLUME IN THE DOMAIN :    10.02981     M3
     FLUX BOUNDARY    1:   -0.2505809     M3/S  ( >0 : ENTERING  <0 : EXITING )
     FLUX BOUNDARY    2:    0.2499993     M3/S  ( >0 : ENTERING  <0 : EXITING )
     RELATIVE ERROR IN VOLUME AT T =        170.0     S :   -0.4858085E-08

================================================================================
 ITERATION     1700    TIME:  2 MN  50.0000 S     (    170.0000 S)

 CVTRVF (BIEF):      1 SUB-ITERATIONS
 MAXIMAL CONCENTRATION    :    0.9996883E-03 %, NODE =      486
 MINIMAL CONCENTRATION    :    0.9377741E-03 %, NODE =      406
 MAXIMAL EVOLUTION        :    0.3857289E-05  , NODE =      486
 MINIMAL EVOLUTION        :    0.1900071E-05  , NODE =      375
 MAX. CFL FOR SUSPENSION  :    0.5751104      , NODE =       82

 QUANTITY OF CLASS                  1 IN SUSPENSION AT TIME T    :     25.739987603     KG
 QUANTITY OF CLASS                  1 IN SUSPENSION AT TIME T+DT :     25.739851215     KG
 BOUNDARY   1 FLUX TRACER  1 =   -0.62271873243     ( >0 : ENTERING  <0 : EXITING )
 BOUNDARY   2 FLUX TRACER  1 =    0.66249826050     ( >0 : ENTERING  <0 : EXITING )
 VOLUME OF DEPOSIT           :    0.41144642746E-02 KG
 ERROR ON VOLUME             :   -0.12427265836E-06

 TOTAL MAXIMAL EVOLUTION  :    0.6628696E-02 NODE  :    486
 TOTAL MINIMAL EVOLUTION  :    0.3306444E-02 NODE  :    861

================================================================================
 ITERATION     1800    TIME:  2 MN  60.0000 S   (      180.0000 S)
--------------------------------------------------------------------------------
                          ADVECTION STEP          
--------------------------------------------------------------------------------
                    DIFFUSION-PROPAGATION STEP    
 GRACJG (BIEF) :        1 ITERATIONS, ABSOLUTE PRECISION:   0.8434394E-06
--------------------------------------------------------------------------------
                       BALANCE OF WATER VOLUME    
     VOLUME IN THE DOMAIN :    10.02407     M3
     FLUX BOUNDARY    1:   -0.2505920     M3/S  ( >0 : ENTERING  <0 : EXITING )
     FLUX BOUNDARY    2:    0.2499994     M3/S  ( >0 : ENTERING  <0 : EXITING )
     RELATIVE ERROR IN VOLUME AT T =        180.0     S :   -0.1125662E-07

================================================================================
 ITERATION     1800    TIME:  2 MN  60.0000 S     (    180.0000 S)

 CVTRVF (BIEF):      1 SUB-ITERATIONS
 MAXIMAL CONCENTRATION    :    0.9996887E-03 %, NODE =      486
 MINIMAL CONCENTRATION    :    0.9378623E-03 %, NODE =      406
 MAXIMAL EVOLUTION        :    0.3851897E-05  , NODE =      486
 MINIMAL EVOLUTION        :    0.1896717E-05  , NODE =      861
 MAX. CFL FOR SUSPENSION  :    0.5754601      , NODE =      568

 QUANTITY OF CLASS                  1 IN SUSPENSION AT TIME T    :     25.726509792     KG
 QUANTITY OF CLASS                  1 IN SUSPENSION AT TIME T+DT :     25.726370439     KG
 BOUNDARY   1 FLUX TRACER  1 =   -0.62280491044     ( >0 : ENTERING  <0 : EXITING )
 BOUNDARY   2 FLUX TRACER  1 =    0.66249850933     ( >0 : ENTERING  <0 : EXITING )
 VOLUME OF DEPOSIT           :    0.41089932201E-02 KG
 ERROR ON VOLUME             :   -0.28037375601E-06

 TOTAL MAXIMAL EVOLUTION  :    0.7014141E-02 NODE  :    486
 TOTAL MINIMAL EVOLUTION  :    0.3496266E-02 NODE  :    861

================================================================================
 ITERATION     1900    TIME:  3 MN  10.0000 S   (      190.0000 S)
--------------------------------------------------------------------------------
                          ADVECTION STEP          
--------------------------------------------------------------------------------
                    DIFFUSION-PROPAGATION STEP    
 GRACJG (BIEF) :        1 ITERATIONS, ABSOLUTE PRECISION:   0.8409590E-06
--------------------------------------------------------------------------------
                       BALANCE OF WATER VOLUME    
     VOLUME IN THE DOMAIN :    10.01848     M3
     FLUX BOUNDARY    1:   -0.2505526     M3/S  ( >0 : ENTERING  <0 : EXITING )
     FLUX BOUNDARY    2:    0.2499993     M3/S  ( >0 : ENTERING  <0 : EXITING )
     RELATIVE ERROR IN VOLUME AT T =        190.0     S :   -0.6419264E-08

================================================================================
 ITERATION     1900    TIME:  3 MN  10.0000 S     (    190.0000 S)

 CVTRVF (BIEF):      1 SUB-ITERATIONS
 MAXIMAL CONCENTRATION    :    0.9996891E-03 %, NODE =      486
 MINIMAL CONCENTRATION    :    0.9379474E-03 %, NODE =      406
 MAXIMAL EVOLUTION        :    0.3847001E-05  , NODE =      486
 MINIMAL EVOLUTION        :    0.1892096E-05  , NODE =      861
 MAX. CFL FOR SUSPENSION  :    0.5756988      , NODE =      568

 QUANTITY OF CLASS                  1 IN SUSPENSION AT TIME T    :     25.713375102     KG
 QUANTITY OF CLASS                  1 IN SUSPENSION AT TIME T+DT :     25.713245209     KG
 BOUNDARY   1 FLUX TRACER  1 =   -0.62276345701     ( >0 : ENTERING  <0 : EXITING )
 BOUNDARY   2 FLUX TRACER  1 =    0.66249811963     ( >0 : ENTERING  <0 : EXITING )
 VOLUME OF DEPOSIT           :    0.41035201866E-02 KG
 ERROR ON VOLUME             :   -0.16142355649E-06

 TOTAL MAXIMAL EVOLUTION  :    0.7399083E-02 NODE  :    486
 TOTAL MINIMAL EVOLUTION  :    0.3685720E-02 NODE  :    861

================================================================================
 ITERATION     2000    TIME:  3 MN  20.0000 S   (      200.0000 S)
--------------------------------------------------------------------------------
                          ADVECTION STEP          
--------------------------------------------------------------------------------
                    DIFFUSION-PROPAGATION STEP    
 GRACJG (BIEF) :        1 ITERATIONS, ABSOLUTE PRECISION:   0.8767522E-06
--------------------------------------------------------------------------------
                       BALANCE OF WATER VOLUME    
     VOLUME IN THE DOMAIN :    10.01294     M3
     FLUX BOUNDARY    1:   -0.2505614     M3/S  ( >0 : ENTERING  <0 : EXITING )
     FLUX BOUNDARY    2:    0.2499994     M3/S  ( >0 : ENTERING  <0 : EXITING )
     RELATIVE ERROR IN VOLUME AT T =        200.0     S :   -0.2739896E-08
 PRERES: MAXIMUM COURANT NUMBER:    0.5760490    

================================================================================
 ITERATION     2000    TIME:  3 MN  20.0000 S     (    200.0000 S)

 CVTRVF (BIEF):      1 SUB-ITERATIONS
 MAXIMAL CONCENTRATION    :    0.9996895E-03 %, NODE =      486
 MINIMAL CONCENTRATION    :    0.9380323E-03 %, NODE =      406
 MAXIMAL EVOLUTION        :    0.3842117E-05  , NODE =      486
 MINIMAL EVOLUTION        :    0.1888940E-05  , NODE =      861
 MAX. CFL FOR SUSPENSION  :    0.5760443      , NODE =       82

 QUANTITY OF CLASS                  1 IN SUSPENSION AT TIME T    :     25.700322401     KG
 QUANTITY OF CLASS                  1 IN SUSPENSION AT TIME T+DT :     25.700189850     KG
 BOUNDARY   1 FLUX TRACER  1 =   -0.62284171358     ( >0 : ENTERING  <0 : EXITING )
 BOUNDARY   2 FLUX TRACER  1 =    0.66249847665     ( >0 : ENTERING  <0 : EXITING )
 VOLUME OF DEPOSIT           :    0.40982977953E-02 KG
 ERROR ON VOLUME             :   -0.70206158028E-07

 TOTAL MAXIMAL EVOLUTION  :    0.7783521E-02 NODE  :    486
 TOTAL MINIMAL EVOLUTION  :    0.3874807E-02 NODE  :    861
 PRERES: MAXIMUM COURANT NUMBER:    0.5760490    

================================================================================
 ITERATION     2100    TIME:  3 MN  30.0000 S   (      210.0000 S)
--------------------------------------------------------------------------------
                          ADVECTION STEP          
--------------------------------------------------------------------------------
                    DIFFUSION-PROPAGATION STEP    
 GRACJG (BIEF) :        1 ITERATIONS, ABSOLUTE PRECISION:   0.9221026E-06
--------------------------------------------------------------------------------
                       BALANCE OF WATER VOLUME    
     VOLUME IN THE DOMAIN :    10.00746     M3
     FLUX BOUNDARY    1:   -0.2505675     M3/S  ( >0 : ENTERING  <0 : EXITING )
     FLUX BOUNDARY    2:    0.2499993     M3/S  ( >0 : ENTERING  <0 : EXITING )
     RELATIVE ERROR IN VOLUME AT T =        210.0     S :   -0.8385178E-08

================================================================================
 ITERATION     2100    TIME:  3 MN  30.0000 S     (    210.0000 S)

 CVTRVF (BIEF):      1 SUB-ITERATIONS
 MAXIMAL CONCENTRATION    :    0.9996899E-03 %, NODE =      486
 MINIMAL CONCENTRATION    :    0.9381148E-03 %, NODE =      406
 MAXIMAL EVOLUTION        :    0.3837138E-05  , NODE =      486
 MINIMAL EVOLUTION        :    0.1884378E-05  , NODE =      861
 MAX. CFL FOR SUSPENSION  :    0.5763831      , NODE =      568

 QUANTITY OF CLASS                  1 IN SUSPENSION AT TIME T    :     25.687446989     KG
 QUANTITY OF CLASS                  1 IN SUSPENSION AT TIME T+DT :     25.687313582     KG
 BOUNDARY   1 FLUX TRACER  1 =   -0.62291161647     ( >0 : ENTERING  <0 : EXITING )
 BOUNDARY   2 FLUX TRACER  1 =    0.66249821257     ( >0 : ENTERING  <0 : EXITING )
 VOLUME OF DEPOSIT           :    0.40922774933E-02 KG
 ERROR ON VOLUME             :   -0.21090608189E-06

 TOTAL MAXIMAL EVOLUTION  :    0.8167482E-02 NODE  :    486
 TOTAL MINIMAL EVOLUTION  :    0.4063454E-02 NODE  :    861

================================================================================
 ITERATION     2200    TIME:  3 MN  40.0000 S   (      220.0000 S)
--------------------------------------------------------------------------------
                          ADVECTION STEP          
--------------------------------------------------------------------------------
                    DIFFUSION-PROPAGATION STEP    
 GRACJG (BIEF) :        1 ITERATIONS, ABSOLUTE PRECISION:   0.7158500E-06
--------------------------------------------------------------------------------
                       BALANCE OF WATER VOLUME    
     VOLUME IN THE DOMAIN :    10.00180     M3
     FLUX BOUNDARY    1:   -0.2505665     M3/S  ( >0 : ENTERING  <0 : EXITING )
     FLUX BOUNDARY    2:    0.2499993     M3/S  ( >0 : ENTERING  <0 : EXITING )
     RELATIVE ERROR IN VOLUME AT T =        220.0     S :   -0.1529094E-08

================================================================================
 ITERATION     2200    TIME:  3 MN  40.0000 S     (    220.0000 S)

 CVTRVF (BIEF):      1 SUB-ITERATIONS
 MAXIMAL CONCENTRATION    :    0.9996903E-03 %, NODE =      486
 MINIMAL CONCENTRATION    :    0.9382013E-03 %, NODE =      406
 MAXIMAL EVOLUTION        :    0.3832204E-05  , NODE =      486
 MINIMAL EVOLUTION        :    0.1879858E-05  , NODE =      375
 MAX. CFL FOR SUSPENSION  :    0.5767097      , NODE =       82

 QUANTITY OF CLASS                  1 IN SUSPENSION AT TIME T    :     25.674126998     KG
 QUANTITY OF CLASS                  1 IN SUSPENSION AT TIME T+DT :     25.673993773     KG
 BOUNDARY   1 FLUX TRACER  1 =   -0.62296672480     ( >0 : ENTERING  <0 : EXITING )
 BOUNDARY   2 FLUX TRACER  1 =    0.66249816378     ( >0 : ENTERING  <0 : EXITING )
 VOLUME OF DEPOSIT           :    0.40864080656E-02 KG
 ERROR ON VOLUME             :   -0.39157279384E-07

 TOTAL MAXIMAL EVOLUTION  :    0.8550940E-02 NODE  :    486
 TOTAL MINIMAL EVOLUTION  :    0.4251701E-02 NODE  :    861

================================================================================
 ITERATION     2300    TIME:  3 MN  50.0000 S   (      230.0000 S)
--------------------------------------------------------------------------------
                          ADVECTION STEP          
--------------------------------------------------------------------------------
                    DIFFUSION-PROPAGATION STEP    
 GRACJG (BIEF) :        0 ITERATIONS, ABSOLUTE PRECISION:   0.9348211E-06
--------------------------------------------------------------------------------
                       BALANCE OF WATER VOLUME    
     VOLUME IN THE DOMAIN :    9.996177     M3
     FLUX BOUNDARY    1:   -0.2505711     M3/S  ( >0 : ENTERING  <0 : EXITING )
     FLUX BOUNDARY    2:    0.2499993     M3/S  ( >0 : ENTERING  <0 : EXITING )
     RELATIVE ERROR IN VOLUME AT T =        230.0     S :   -0.1963602E-08

================================================================================
 ITERATION     2300    TIME:  3 MN  50.0000 S     (    230.0000 S)

 CVTRVF (BIEF):      1 SUB-ITERATIONS
 MAXIMAL CONCENTRATION    :    0.9996908E-03 %, NODE =      486
 MINIMAL CONCENTRATION    :    0.9382877E-03 %, NODE =      406
 MAXIMAL EVOLUTION        :    0.3827009E-05  , NODE =      486
 MINIMAL EVOLUTION        :    0.1876051E-05  , NODE =      375
 MAX. CFL FOR SUSPENSION  :    0.5770455      , NODE =       82

 QUANTITY OF CLASS                  1 IN SUSPENSION AT TIME T    :     25.660932821     KG
 QUANTITY OF CLASS                  1 IN SUSPENSION AT TIME T+DT :     25.660798324     KG
 BOUNDARY   1 FLUX TRACER  1 =   -0.62303544955     ( >0 : ENTERING  <0 : EXITING )
 BOUNDARY   2 FLUX TRACER  1 =    0.66249823619     ( >0 : ENTERING  <0 : EXITING )
 VOLUME OF DEPOSIT           :    0.40808236226E-02 KG
 ERROR ON VOLUME             :   -0.47833927609E-07

 TOTAL MAXIMAL EVOLUTION  :    0.8933892E-02 NODE  :    486
 TOTAL MINIMAL EVOLUTION  :    0.4439485E-02 NODE  :    861

================================================================================
 ITERATION     2400    TIME:  3 MN  60.0000 S   (      240.0000 S)
--------------------------------------------------------------------------------
                          ADVECTION STEP          
--------------------------------------------------------------------------------
                    DIFFUSION-PROPAGATION STEP    
 GRACJG (BIEF) :        1 ITERATIONS, ABSOLUTE PRECISION:   0.9179642E-06
--------------------------------------------------------------------------------
                       BALANCE OF WATER VOLUME    
     VOLUME IN THE DOMAIN :    9.990622     M3
     FLUX BOUNDARY    1:   -0.2505512     M3/S  ( >0 : ENTERING  <0 : EXITING )
     FLUX BOUNDARY    2:    0.2499993     M3/S  ( >0 : ENTERING  <0 : EXITING )
     RELATIVE ERROR IN VOLUME AT T =        240.0     S :   -0.3268079E-08

================================================================================
 ITERATION     2400    TIME:  3 MN  60.0000 S     (    240.0000 S)

 CVTRVF (BIEF):      1 SUB-ITERATIONS
 MAXIMAL CONCENTRATION    :    0.9996912E-03 %, NODE =      486
 MINIMAL CONCENTRATION    :    0.9383730E-03 %, NODE =      406
 MAXIMAL EVOLUTION        :    0.3822068E-05  , NODE =      486
 MINIMAL EVOLUTION        :    0.1871720E-05  , NODE =      375
 MAX. CFL FOR SUSPENSION  :    0.5773265      , NODE =       82

 QUANTITY OF CLASS                  1 IN SUSPENSION AT TIME T    :     25.647869349     KG
 QUANTITY OF CLASS                  1 IN SUSPENSION AT TIME T+DT :     25.647739706     KG
 BOUNDARY   1 FLUX TRACER  1 =   -0.62304279568     ( >0 : ENTERING  <0 : EXITING )
 BOUNDARY   2 FLUX TRACER  1 =    0.66249809750     ( >0 : ENTERING  <0 : EXITING )
 VOLUME OF DEPOSIT           :    0.40752557106E-02 KG
 ERROR ON VOLUME             :   -0.82408848611E-07

 TOTAL MAXIMAL EVOLUTION  :    0.9316342E-02 NODE  :    486
 TOTAL MINIMAL EVOLUTION  :    0.4626885E-02 NODE  :    861

================================================================================
 ITERATION     2500    TIME:  4 MN  10.0000 S   (      250.0000 S)
--------------------------------------------------------------------------------
                          ADVECTION STEP          
--------------------------------------------------------------------------------
                    DIFFUSION-PROPAGATION STEP    
 GRACJG (BIEF) :        1 ITERATIONS, ABSOLUTE PRECISION:   0.7510955E-06
--------------------------------------------------------------------------------
                       BALANCE OF WATER VOLUME    
     VOLUME IN THE DOMAIN :    9.985094     M3
     FLUX BOUNDARY    1:   -0.2505569     M3/S  ( >0 : ENTERING  <0 : EXITING )
     FLUX BOUNDARY    2:    0.2499993     M3/S  ( >0 : ENTERING  <0 : EXITING )
     RELATIVE ERROR IN VOLUME AT T =        250.0     S :   -0.7364270E-09

================================================================================
 ITERATION     2500    TIME:  4 MN  10.0000 S     (    250.0000 S)

 CVTRVF (BIEF):      1 SUB-ITERATIONS
 MAXIMAL CONCENTRATION    :    0.9996916E-03 %, NODE =      486
 MINIMAL CONCENTRATION    :    0.9384580E-03 %, NODE =      406
 MAXIMAL EVOLUTION        :    0.3817089E-05  , NODE =      486
 MINIMAL EVOLUTION        :    0.1868082E-05  , NODE =      375
 MAX. CFL FOR SUSPENSION  :    0.5776661      , NODE =       82

 QUANTITY OF CLASS                  1 IN SUSPENSION AT TIME T    :     25.634869081     KG
 QUANTITY OF CLASS                  1 IN SUSPENSION AT TIME T+DT :     25.634737825     KG
 BOUNDARY   1 FLUX TRACER  1 =   -0.62311326104     ( >0 : ENTERING  <0 : EXITING )
 BOUNDARY   2 FLUX TRACER  1 =    0.66249824440     ( >0 : ENTERING  <0 : EXITING )
 VOLUME OF DEPOSIT           :    0.40697737131E-02 KG
 ERROR ON VOLUME             :   -0.18986070752E-07

 TOTAL MAXIMAL EVOLUTION  :    0.9698290E-02 NODE  :    486
 TOTAL MINIMAL EVOLUTION  :    0.4813887E-02 NODE  :    861

================================================================================
 ITERATION     2600    TIME:  4 MN  20.0000 S   (      260.0000 S)
--------------------------------------------------------------------------------
                          ADVECTION STEP          
--------------------------------------------------------------------------------
                    DIFFUSION-PROPAGATION STEP    
 GRACJG (BIEF) :        1 ITERATIONS, ABSOLUTE PRECISION:   0.5112171E-06
--------------------------------------------------------------------------------
                       BALANCE OF WATER VOLUME    
     VOLUME IN THE DOMAIN :    9.979592     M3
     FLUX BOUNDARY    1:   -0.2505576     M3/S  ( >0 : ENTERING  <0 : EXITING )
     FLUX BOUNDARY    2:    0.2499993     M3/S  ( >0 : ENTERING  <0 : EXITING )
     RELATIVE ERROR IN VOLUME AT T =        260.0     S :   -0.1185773E-08

================================================================================
 ITERATION     2600    TIME:  4 MN  20.0000 S     (    260.0000 S)

 CVTRVF (BIEF):      1 SUB-ITERATIONS
 MAXIMAL CONCENTRATION    :    0.9996920E-03 %, NODE =      486
 MINIMAL CONCENTRATION    :    0.9385422E-03 %, NODE =      406
 MAXIMAL EVOLUTION        :    0.3812093E-05  , NODE =      486
 MINIMAL EVOLUTION        :    0.1863695E-05  , NODE =      861
 MAX. CFL FOR SUSPENSION  :    0.5779930      , NODE =      568

 QUANTITY OF CLASS                  1 IN SUSPENSION AT TIME T    :     25.621936546     KG
 QUANTITY OF CLASS                  1 IN SUSPENSION AT TIME T+DT :     25.621805354     KG
 BOUNDARY   1 FLUX TRACER  1 =   -0.62317102086     ( >0 : ENTERING  <0 : EXITING )
 BOUNDARY   2 FLUX TRACER  1 =    0.66249812124     ( >0 : ENTERING  <0 : EXITING )
 VOLUME OF DEPOSIT           :    0.40639324579E-02 KG
 ERROR ON VOLUME             :   -0.29837191544E-07

 TOTAL MAXIMAL EVOLUTION  :    0.1007975E-01 NODE  :    486
 TOTAL MINIMAL EVOLUTION  :    0.5000469E-02 NODE  :    861

================================================================================
 ITERATION     2700    TIME:  4 MN  30.0000 S   (      270.0000 S)
--------------------------------------------------------------------------------
                          ADVECTION STEP          
--------------------------------------------------------------------------------
                    DIFFUSION-PROPAGATION STEP    
 GRACJG (BIEF) :        1 ITERATIONS, ABSOLUTE PRECISION:   0.9240826E-06
--------------------------------------------------------------------------------
                       BALANCE OF WATER VOLUME    
     VOLUME IN THE DOMAIN :    9.974012     M3
     FLUX BOUNDARY    1:   -0.2505578     M3/S  ( >0 : ENTERING  <0 : EXITING )
     FLUX BOUNDARY    2:    0.2499993     M3/S  ( >0 : ENTERING  <0 : EXITING )
     RELATIVE ERROR IN VOLUME AT T =        270.0     S :   -0.7767468E-09

================================================================================
 ITERATION     2700    TIME:  4 MN  30.0000 S     (    270.0000 S)

 CVTRVF (BIEF):      1 SUB-ITERATIONS
 MAXIMAL CONCENTRATION    :    0.9996924E-03 %, NODE =      486
 MINIMAL CONCENTRATION    :    0.9386282E-03 %, NODE =      406
 MAXIMAL EVOLUTION        :    0.3807101E-05  , NODE =      486
 MINIMAL EVOLUTION        :    0.1859501E-05  , NODE =      861
 MAX. CFL FOR SUSPENSION  :    0.5783218      , NODE =      568

 QUANTITY OF CLASS                  1 IN SUSPENSION AT TIME T    :     25.608821791     KG
 QUANTITY OF CLASS                  1 IN SUSPENSION AT TIME T+DT :     25.608690555     KG
 BOUNDARY   1 FLUX TRACER  1 =   -0.62322869221     ( >0 : ENTERING  <0 : EXITING )
 BOUNDARY   2 FLUX TRACER  1 =    0.66249812874     ( >0 : ENTERING  <0 : EXITING )
 VOLUME OF DEPOSIT           :    0.40581993526E-02 KG
 ERROR ON VOLUME             :   -0.20238506955E-07

 TOTAL MAXIMAL EVOLUTION  :    0.1046070E-01 NODE  :    486
 TOTAL MINIMAL EVOLUTION  :    0.5186644E-02 NODE  :    861

================================================================================
 ITERATION     2800    TIME:  4 MN  40.0000 S   (      280.0000 S)
--------------------------------------------------------------------------------
                          ADVECTION STEP          
--------------------------------------------------------------------------------
                    DIFFUSION-PROPAGATION STEP    
 GRACJG (BIEF) :        1 ITERATIONS, ABSOLUTE PRECISION:   0.6834479E-06
--------------------------------------------------------------------------------
                       BALANCE OF WATER VOLUME    
     VOLUME IN THE DOMAIN :    9.968464     M3
     FLUX BOUNDARY    1:   -0.2505586     M3/S  ( >0 : ENTERING  <0 : EXITING )
     FLUX BOUNDARY    2:    0.2499993     M3/S  ( >0 : ENTERING  <0 : EXITING )
     RELATIVE ERROR IN VOLUME AT T =        280.0     S :   -0.5914563E-09

================================================================================
 ITERATION     2800    TIME:  4 MN  40.0000 S     (    280.0000 S)

 CVTRVF (BIEF):      1 SUB-ITERATIONS
 MAXIMAL CONCENTRATION    :    0.9996928E-03 %, NODE =      486
 MINIMAL CONCENTRATION    :    0.9387140E-03 %, NODE =      406
 MAXIMAL EVOLUTION        :    0.3801996E-05  , NODE =      486
 MINIMAL EVOLUTION        :    0.1855499E-05  , NODE =      861
 MAX. CFL FOR SUSPENSION  :    0.5786481      , NODE =      568

 QUANTITY OF CLASS                  1 IN SUSPENSION AT TIME T    :     25.595792399     KG
 QUANTITY OF CLASS                  1 IN SUSPENSION AT TIME T+DT :     25.595660922     KG
 BOUNDARY   1 FLUX TRACER  1 =   -0.62328747643     ( >0 : ENTERING  <0 : EXITING )
 BOUNDARY   2 FLUX TRACER  1 =    0.66249814176     ( >0 : ENTERING  <0 : EXITING )
 VOLUME OF DEPOSIT           :    0.40525589138E-02 KG
 ERROR ON VOLUME             :   -0.14863952777E-07

 TOTAL MAXIMAL EVOLUTION  :    0.1084115E-01 NODE  :    486
 TOTAL MINIMAL EVOLUTION  :    0.5372387E-02 NODE  :    861

================================================================================
 ITERATION     2900    TIME:  4 MN  50.0000 S   (      290.0000 S)
--------------------------------------------------------------------------------
                          ADVECTION STEP          
--------------------------------------------------------------------------------
                    DIFFUSION-PROPAGATION STEP    
 GRACJG (BIEF) :        1 ITERATIONS, ABSOLUTE PRECISION:   0.8716146E-06
--------------------------------------------------------------------------------
                       BALANCE OF WATER VOLUME    
     VOLUME IN THE DOMAIN :    9.962943     M3
     FLUX BOUNDARY    1:   -0.2505493     M3/S  ( >0 : ENTERING  <0 : EXITING )
     FLUX BOUNDARY    2:    0.2499993     M3/S  ( >0 : ENTERING  <0 : EXITING )
     RELATIVE ERROR IN VOLUME AT T =        290.0     S :   -0.6156454E-09

================================================================================
 ITERATION     2900    TIME:  4 MN  50.0000 S     (    290.0000 S)

 CVTRVF (BIEF):      1 SUB-ITERATIONS
 MAXIMAL CONCENTRATION    :    0.9996932E-03 %, NODE =      486
 MINIMAL CONCENTRATION    :    0.9387994E-03 %, NODE =      406
 MAXIMAL EVOLUTION        :    0.3797014E-05  , NODE =      486
 MINIMAL EVOLUTION        :    0.1851325E-05  , NODE =      861
 MAX. CFL FOR SUSPENSION  :    0.5789516      , NODE =      568

 QUANTITY OF CLASS                  1 IN SUSPENSION AT TIME T    :     25.582814374     KG
 QUANTITY OF CLASS                  1 IN SUSPENSION AT TIME T+DT :     25.582685137     KG
 BOUNDARY   1 FLUX TRACER  1 =   -0.62332121646     ( >0 : ENTERING  <0 : EXITING )
 BOUNDARY   2 FLUX TRACER  1 =    0.66249809906     ( >0 : ENTERING  <0 : EXITING )
 VOLUME OF DEPOSIT           :    0.40469409432E-02 KG
 ERROR ON VOLUME             :   -0.15883239583E-07

 TOTAL MAXIMAL EVOLUTION  :    0.1122110E-01 NODE  :    486
 TOTAL MINIMAL EVOLUTION  :    0.5557734E-02 NODE  :    861

================================================================================
 ITERATION     3000    TIME:  4 MN  60.0000 S   (      300.0000 S)
--------------------------------------------------------------------------------
                          ADVECTION STEP          
--------------------------------------------------------------------------------
                    DIFFUSION-PROPAGATION STEP    
 GRACJG (BIEF) :        2 ITERATIONS, ABSOLUTE PRECISION:   0.2190234E-06
--------------------------------------------------------------------------------
                       BALANCE OF WATER VOLUME    
     VOLUME IN THE DOMAIN :    9.957442     M3
     FLUX BOUNDARY    1:   -0.2505522     M3/S  ( >0 : ENTERING  <0 : EXITING )
     FLUX BOUNDARY    2:    0.2499993     M3/S  ( >0 : ENTERING  <0 : EXITING )
     RELATIVE ERROR IN VOLUME AT T =        300.0     S :   -0.1841190E-09
 PRERES: MAXIMUM COURANT NUMBER:    0.5792901    

================================================================================
 ITERATION     3000    TIME:  4 MN  60.0000 S     (    300.0000 S)

 CVTRVF (BIEF):      1 SUB-ITERATIONS
 MAXIMAL CONCENTRATION    :    0.9996936E-03 %, NODE =      486
 MINIMAL CONCENTRATION    :    0.9388847E-03 %, NODE =      406
 MAXIMAL EVOLUTION        :    0.3791994E-05  , NODE =      486
 MINIMAL EVOLUTION        :    0.1847451E-05  , NODE =      375
 MAX. CFL FOR SUSPENSION  :    0.5792856      , NODE =       82

 QUANTITY OF CLASS                  1 IN SUSPENSION AT TIME T    :     25.569885812     KG
 QUANTITY OF CLASS                  1 IN SUSPENSION AT TIME T+DT :     25.569755797     KG
 BOUNDARY   1 FLUX TRACER  1 =   -0.62338491503     ( >0 : ENTERING  <0 : EXITING )
 BOUNDARY   2 FLUX TRACER  1 =    0.66249815950     ( >0 : ENTERING  <0 : EXITING )
 VOLUME OF DEPOSIT           :    0.40413439274E-02 KG
 ERROR ON VOLUME             :   -0.46531896079E-08
