\relax 
\catcode`:\active
\catcode`;\active
\catcode`!\active
\catcode`?\active
\citation{BRISTEAU11}
\bibcite{BRISTEAU11}{1}
\select@language{french}
\@writefile{toc}{\select@language{french}}
\@writefile{lof}{\select@language{french}}
\@writefile{lot}{\select@language{french}}
\@writefile{lof}{\contentsline {figure}{\numberline {1}{\ignorespaces Evolutions de la cote d'eau en $x = 28\ m$}}{2}}
\newlabel{fig1}{{1}{2}}
