grid48_v1_quad.grd
96 63
1  200000.000000       0.000000       10.000
2  250000.000000       0.000000       15.625
3  196160.000000   39020.000000       10.000
4  245200.000000   48770.000000       15.625
5  300000.000000       0.000000       22.500
6  294240.000000   58530.000000       22.500
7  350000.000000       0.000000       30.625
8  343270.000000   68280.000000       30.625
9  400000.000000       0.000000       40.000
10  392310.000000   78040.000000       40.000
11  450000.000000       0.000000       50.625
12  441350.000000   87790.000000       50.625
13  230970.000000   95670.000000       15.625
14  184780.000000   76540.000000       10.000
15  500000.000000       0.000000       62.500
16  490390.000000   97550.000000       62.500
17  277160.000000  114810.000000       22.500
18  323360.000000  133940.000000       30.625
19  207870.000000  138890.000000       15.625
20  166290.000000  111110.000000       10.000
21  369550.000000  153070.000000       40.000
22  249440.000000  166670.000000       22.500
23  415750.000000  172210.000000       50.625
24  141420.000000  141420.000000       10.000
25  176780.000000  176780.000000       15.625
26  461940.000000  191340.000000       62.500
27  291010.000000  194450.000000       30.625
28  111110.000000  166290.000000       10.000
29  138890.000000  207870.000000       15.625
30  212130.000000  212130.000000       22.500
31  332590.000000  222230.000000       40.000
32   76540.000000  184780.000000       10.000
33   95670.000000  230970.000000       15.625
34  247490.000000  247490.000000       30.625
35   39020.000000  196160.000000       10.000
36   48770.000000  245200.000000       15.625
37  374160.000000  250010.000000       50.625
38  166670.000000  249440.000000       22.500
39       0.000000  200000.000000       10.000
40       0.000000  250000.000000       15.625
41  415730.000000  277790.000000       62.500
42  114810.000000  277160.000000       22.500
43  282840.000000  282840.000000       40.000
44  194450.000000  291010.000000       30.625
45   58530.000000  294240.000000       22.500
46       0.000000  300000.000000       22.500
47  318200.000000  318200.000000       50.625
48  133940.000000  323360.000000       30.625
49  222230.000000  332590.000000       40.000
50   68280.000000  343270.000000       30.625
51  353550.000000  353550.000000       62.500
52       0.000000  350000.000000       30.625
53  153070.000000  369550.000000       40.000
54  250010.000000  374160.000000       50.625
55   78040.000000  392310.000000       40.000
56       0.000000  400000.000000       40.000
57  277790.000000  415730.000000       62.500
58  172210.000000  415750.000000       50.625
59   87790.000000  441350.000000       50.625
60       0.000000  450000.000000       50.625
61  191340.000000  461940.000000       62.500
62   97550.000000  490390.000000       62.500
63       0.000000  500000.000000       62.500
1 3 1 2 3
2 3 2 4 3
3 3 4 2 6
4 3 6 2 5
5 3 7 6 5
6 3 8 6 7
7 3 8 7 10
8 3 10 7 9
9 3 11 10 9
10 3 12 10 11
11 3 3 13 14
12 3 4 13 3
13 3 12 11 16
14 3 16 11 15
15 3 4 6 13
16 3 6 17 13
17 3 6 18 17
18 3 8 18 6
19 3 13 20 14
20 3 19 20 13
21 3 8 10 18
22 3 10 21 18
23 3 19 13 22
24 3 22 13 17
25 3 12 23 10
26 3 10 23 21
27 3 19 25 20
28 3 20 25 24
29 3 12 16 23
30 3 16 26 23
31 3 18 22 17
32 3 27 22 18
33 3 29 28 25
34 3 25 28 24
35 3 19 22 25
36 3 25 22 30
37 3 27 18 31
38 3 31 18 21
39 3 28 33 32
40 3 29 33 28
41 3 22 34 30
42 3 27 34 22
43 3 35 33 36
44 3 32 33 35
45 3 21 23 31
46 3 31 23 37
47 3 38 25 30
48 3 29 25 38
49 3 36 40 35
50 3 35 40 39
51 3 41 23 26
52 3 37 23 41
53 3 42 33 38
54 3 38 33 29
55 3 43 34 31
56 3 31 34 27
57 3 44 38 34
58 3 34 38 30
59 3 45 33 42
60 3 36 33 45
61 3 46 40 45
62 3 45 40 36
63 3 37 47 31
64 3 31 47 43
65 3 38 48 42
66 3 44 48 38
67 3 44 34 49
68 3 49 34 43
69 3 42 48 45
70 3 45 48 50
71 3 37 41 47
72 3 47 41 51
73 3 45 52 46
74 3 50 52 45
75 3 44 49 48
76 3 48 49 53
77 3 43 47 49
78 3 49 47 54
79 3 50 48 55
80 3 55 48 53
81 3 56 52 55
82 3 55 52 50
83 3 57 47 51
84 3 54 47 57
85 3 54 58 49
86 3 49 58 53
87 3 59 55 58
88 3 58 55 53
89 3 55 60 56
90 3 59 60 55
91 3 54 57 58
92 3 58 57 61
93 3 62 58 61
94 3 59 58 62
95 3 63 60 62
96 3 62 60 59
 1
 9
 9
 15
 16
 26
 41
 51
 57
 61
 62
 63
 1
 21
 21 0
 63
 60
 56
 52
 46
 40
 39
 35
 32
 28
 24
 20
 14
 3
 1
 2
 5
 7
 9
 11
 15
